2015-11-05 03:01:57,580 ERROR send(24) Socket error: D	19	101	057

2015-11-05 03:03:07,580 ERROR send(24) Socket error: D	20	69	077.7

2015-11-05 03:04:05,085 ERROR send(24) Socket error: D	19	104	076

2015-11-05 03:05:15,080 ERROR send(24) Socket error: D	20	124	049.2

2015-11-05 03:07:22,580 ERROR send(24) Socket error: D	20	125	0-73.8

2015-11-05 03:07:22,581 ERROR send(24) Socket error: D	19	103	047

2015-11-05 03:09:30,080 ERROR send(24) Socket error: D	20	126	0480

2015-11-05 03:09:30,084 ERROR send(24) Socket error: D	19	102	020

2015-11-05 03:11:37,580 ERROR send(24) Socket error: D	19	2	018

2015-11-05 03:11:37,584 ERROR send(24) Socket error: D	20	108	06

2015-11-05 03:13:45,080 ERROR send(24) Socket error: D	20	109	04

2015-11-05 03:13:45,081 ERROR send(24) Socket error: D	19	101	059

2015-11-05 03:15:52,584 ERROR send(24) Socket error: D	20	65	0221.8

2015-11-05 03:15:52,588 ERROR send(24) Socket error: D	19	104	076

2015-11-05 03:18:00,080 ERROR send(24) Socket error: D	20	68	054.5

2015-11-05 03:19:10,080 ERROR send(24) Socket error: D	19	103	054

2015-11-05 03:20:07,580 ERROR send(24) Socket error: D	20	67	0209.5

2015-11-05 03:21:17,580 ERROR send(24) Socket error: D	19	102	021

2015-11-05 03:22:15,080 ERROR send(24) Socket error: D	20	107	056.4

2015-11-05 03:23:25,080 ERROR send(24) Socket error: D	19	2	018

2015-11-05 03:24:22,580 ERROR send(24) Socket error: D	20	66	0229.4

2015-11-05 03:25:32,580 ERROR send(24) Socket error: D	19	101	054

2015-11-05 03:26:30,080 ERROR send(24) Socket error: D	20	61	00.0

2015-11-05 03:27:40,080 ERROR send(24) Socket error: D	19	104	078

2015-11-05 03:28:37,580 ERROR send(24) Socket error: D	20	106	054.0

2015-11-05 03:30:57,580 ERROR send(24) Socket error: D	19	103	047

2015-11-05 03:31:55,080 ERROR send(24) Socket error: D	20	69	079.2

2015-11-05 03:33:05,080 ERROR send(24) Socket error: D	19	102	021

2015-11-05 03:34:02,580 ERROR send(24) Socket error: D	20	124	049.2

2015-11-05 03:35:12,580 ERROR send(24) Socket error: D	19	2	018

2015-11-05 03:36:10,080 ERROR send(24) Socket error: D	20	125	0-73.8

2015-11-05 03:37:20,080 ERROR send(24) Socket error: D	19	101	059

2015-11-05 03:38:17,580 ERROR send(24) Socket error: D	20	126	0480

2015-11-05 17:06:56,850 ERROR send(24) Socket error: D	20	69	070.8

2015-11-05 17:06:59,861 ERROR send(24) Socket error: D	20	124	049.2

2015-11-05 17:07:02,873 ERROR send(24) Socket error: D	20	125	0-73.8

2015-11-05 17:07:02,874 ERROR send(24) Socket error: D	19	220	0TIME_OUT

2015-11-05 17:07:05,885 ERROR send(24) Socket error: D	20	126	0480

2015-11-05 17:07:08,897 ERROR send(24) Socket error: D	20	108	06

2015-11-05 17:07:11,908 ERROR send(24) Socket error: D	20	109	04

2015-11-05 17:07:14,920 ERROR send(24) Socket error: D	20	65	0228.6

2015-11-05 17:07:17,932 ERROR send(24) Socket error: D	20	68	054.3

2015-11-05 17:07:20,944 ERROR send(24) Socket error: D	20	67	0224.2

2015-11-05 17:07:23,961 ERROR send(24) Socket error: D	19	103	053

2015-11-05 17:07:23,969 ERROR send(24) Socket error: D	20	107	056.4

2015-11-05 17:07:26,967 ERROR send(24) Socket error: D	20	66	0229.5

2015-11-05 17:07:26,968 ERROR send(24) Socket error: D	19	102	020

2015-11-05 17:07:29,979 ERROR send(24) Socket error: D	20	61	00.0

2015-11-05 17:07:29,980 ERROR send(24) Socket error: D	19	2	0TIME_OUT

2015-11-05 17:07:32,995 ERROR send(24) Socket error: D	20	106	054.0

2015-11-05 17:07:32,997 ERROR send(24) Socket error: D	19	101	057

2015-11-05 17:07:36,002 ERROR send(24) Socket error: D	19	104	077

2015-11-05 17:08:08,678 ERROR send(24) Socket error: D	19	220	01

2015-11-09 14:57:00,218 ERROR send(24) Socket error: D	19	103	046

2015-11-18 10:47:37,708 ERROR main(161) main()<class 'BrokenPipeError'>

2015-11-20 02:12:48,682 INFO main(91) Stop command

2015-11-20 02:12:58,929 ERROR run(159) Runtime error App

2015-11-20 02:25:49,524 ERROR run(159) Runtime error App

2015-11-20 02:34:28,828 INFO main(91) Stop command

2015-11-20 02:34:45,892 ERROR run(159) Runtime error App

2015-11-20 02:38:44,694 INFO main(91) Stop command

2015-11-20 02:39:21,821 ERROR run(159) Runtime error App

2015-11-20 02:43:18,485 ERROR run(159) Runtime error App

2015-11-20 02:48:11,742 INFO main(91) Stop command

2015-11-20 02:48:14,452 ERROR run(159) Runtime error App

2015-11-20 03:13:27,853 INFO main(91) Stop command

2015-11-20 03:13:31,196 ERROR run(159) Runtime error App

2015-11-20 03:35:02,282 INFO main(91) Stop command

2015-11-20 03:35:04,834 ERROR run(159) Runtime error App

2015-11-20 03:44:16,168 INFO main(91) Stop command

2015-11-20 03:46:55,501 ERROR run(159) Runtime error App

2015-11-20 04:12:53,406 ERROR run(159) Runtime error App

2015-11-23 05:21:06,986 INFO main(91) Stop command

2015-11-23 05:21:14,369 ERROR run(159) Runtime error App

2015-11-23 05:24:42,921 ERROR run(159) Runtime error App

2015-11-23 05:31:36,431 INFO main(91) Stop command

2015-11-23 05:31:39,583 ERROR run(159) Runtime error App

2015-11-24 03:38:16,504 INFO main(91) Stop command

2015-11-24 03:38:21,809 INFO main(91) Stop command

2015-11-24 03:38:24,374 INFO main(91) Stop command

