2015-11-05 01:38:52,580 ERROR send(24) Socket error: D	20	124	049.2

2015-11-05 01:39:25,080 ERROR send(24) Socket error: D	19	101	0249

2015-11-05 01:41:00,080 ERROR send(24) Socket error: D	20	125	0-73.8

2015-11-05 01:41:32,580 ERROR send(24) Socket error: D	19	104	059

2015-11-05 01:43:07,580 ERROR send(24) Socket error: D	20	126	0480

2015-11-05 01:44:50,080 ERROR send(24) Socket error: D	19	103	047

2015-11-05 01:45:15,080 ERROR send(24) Socket error: D	20	108	06

2015-11-05 01:46:57,580 ERROR send(24) Socket error: D	19	102	018

2015-11-05 01:47:22,580 ERROR send(24) Socket error: D	20	109	04

2015-11-05 01:49:05,080 ERROR send(24) Socket error: D	19	2	018

2015-11-05 01:49:30,080 ERROR send(24) Socket error: D	20	65	0220.7

2015-11-05 01:51:12,580 ERROR send(24) Socket error: D	19	101	058

2015-11-05 01:51:37,580 ERROR send(24) Socket error: D	20	68	054.5

2015-11-05 01:53:20,080 ERROR send(24) Socket error: D	19	104	080

2015-11-05 01:53:45,080 ERROR send(24) Socket error: D	20	67	0201.9

2015-11-05 01:55:52,580 ERROR send(24) Socket error: D	20	107	056.4

2015-11-05 01:56:37,580 ERROR send(24) Socket error: D	19	103	052

2015-11-05 01:58:00,080 ERROR send(24) Socket error: D	20	66	0227.6

2015-11-05 01:58:45,080 ERROR send(24) Socket error: D	19	102	019

2015-11-05 02:00:07,580 ERROR send(24) Socket error: D	20	61	00.0

2015-11-05 02:00:52,580 ERROR send(24) Socket error: D	19	2	018

2015-11-05 02:02:15,080 ERROR send(24) Socket error: D	20	106	054.0

2015-11-05 02:03:00,080 ERROR send(24) Socket error: D	19	101	056

2015-11-05 02:05:07,580 ERROR send(24) Socket error: D	19	104	079

2015-11-05 02:05:32,580 ERROR send(24) Socket error: D	20	69	074.7

2015-11-05 02:07:40,080 ERROR send(24) Socket error: D	20	124	049.2

2015-11-05 02:08:25,080 ERROR send(24) Socket error: D	19	103	051

2015-11-05 02:09:47,580 ERROR send(24) Socket error: D	20	125	0-73.8

2015-11-05 02:10:32,585 ERROR send(24) Socket error: D	19	102	019

2015-11-05 02:11:55,080 ERROR send(24) Socket error: D	20	126	0480

2015-11-05 02:12:40,080 ERROR send(24) Socket error: D	19	2	018

2015-11-05 02:14:02,580 ERROR send(24) Socket error: D	20	108	06

2015-11-05 02:14:47,580 ERROR send(24) Socket error: D	19	101	058

2015-11-05 02:16:10,080 ERROR send(24) Socket error: D	20	109	04

2015-11-05 02:16:55,080 ERROR send(24) Socket error: D	19	104	081

2015-11-05 02:18:17,580 ERROR send(24) Socket error: D	20	65	0216.4

2015-11-05 02:18:18,330 ERROR send(24) Socket error: D	19	9	0TIME_OUT

2015-11-05 02:20:12,580 ERROR send(24) Socket error: D	19	103	051

2015-11-05 02:20:25,080 ERROR send(24) Socket error: D	20	68	054.6

2015-11-05 02:21:28,580 ERROR send(24) Socket error: D	19	9	02

2015-11-05 02:22:20,080 ERROR send(24) Socket error: D	19	102	019

2015-11-05 02:22:32,580 ERROR send(24) Socket error: D	20	67	0214.9

2015-11-05 02:24:27,580 ERROR send(24) Socket error: D	19	2	018

2015-11-05 02:24:40,080 ERROR send(24) Socket error: D	20	107	056.4

2015-11-05 02:26:35,080 ERROR send(24) Socket error: D	19	101	053

2015-11-05 02:26:47,580 ERROR send(24) Socket error: D	20	66	0224.9

2015-11-05 02:28:42,580 ERROR send(24) Socket error: D	19	104	080

2015-11-05 02:28:55,080 ERROR send(24) Socket error: D	20	61	00.0

2015-11-05 02:31:02,580 ERROR send(24) Socket error: D	20	106	054.0

2015-11-05 02:32:00,080 ERROR send(24) Socket error: D	19	103	039

2015-11-05 02:34:07,580 ERROR send(24) Socket error: D	19	102	019

2015-11-05 02:34:20,080 ERROR send(24) Socket error: D	20	69	075.4

2015-11-05 02:36:15,080 ERROR send(24) Socket error: D	19	2	018

2015-11-05 02:36:27,580 ERROR send(24) Socket error: D	20	124	049.2

2015-11-05 02:38:22,580 ERROR send(24) Socket error: D	19	101	050

2015-11-05 02:38:35,080 ERROR send(24) Socket error: D	20	125	0-73.8

2015-11-05 02:40:30,080 ERROR send(24) Socket error: D	19	104	078

2015-11-05 02:40:42,580 ERROR send(24) Socket error: D	20	126	0480

2015-11-05 02:42:50,080 ERROR send(24) Socket error: D	20	108	06

2015-11-05 02:43:47,580 ERROR send(24) Socket error: D	19	103	051

2015-11-05 02:44:57,580 ERROR send(24) Socket error: D	20	109	04

2015-11-05 02:45:55,080 ERROR send(24) Socket error: D	19	102	020

2015-11-05 02:47:05,080 ERROR send(24) Socket error: D	20	65	0214.6

2015-11-05 02:48:02,580 ERROR send(24) Socket error: D	19	2	018

2015-11-05 02:49:12,580 ERROR send(24) Socket error: D	20	68	054.5

2015-11-05 02:50:10,080 ERROR send(24) Socket error: D	19	101	04

2015-11-05 02:51:20,080 ERROR send(24) Socket error: D	20	67	0213.6

2015-11-05 02:52:17,580 ERROR send(24) Socket error: D	19	104	051

2015-11-05 02:53:27,580 ERROR send(24) Socket error: D	20	107	056.4

2015-11-05 02:55:35,080 ERROR send(24) Socket error: D	20	66	0219.8

2015-11-05 02:55:35,084 ERROR send(24) Socket error: D	19	103	046

2015-11-05 02:57:42,580 ERROR send(24) Socket error: D	19	102	020

2015-11-05 02:57:42,581 ERROR send(24) Socket error: D	20	61	00.0

2015-11-05 02:59:50,080 ERROR send(24) Socket error: D	19	2	018

2015-11-05 02:59:50,081 ERROR send(24) Socket error: D	20	106	054.0

