2015-12-10 10:57:50,080 ERROR send(24) Socket error: D	19	103	046

2015-12-10 10:57:50,330 ERROR send(24) Socket error: D	20	69	077.8

2015-12-11 02:09:17,251 ERROR send(24) Socket error: D	20	69	074.3

2015-12-11 02:11:24,580 ERROR send(24) Socket error: D	20	124	049.2

2015-12-11 02:11:50,580 ERROR send(24) Socket error: D	19	103	053

2015-12-11 02:13:32,080 ERROR send(24) Socket error: D	20	125	0-75.0

2015-12-11 02:28:02,305 ERROR run(159) Runtime error App

2015-12-18 03:43:27,687 ERROR main(163) main()<class 'BrokenPipeError'>

2015-12-18 03:52:24,166 ERROR run(159) Runtime error App

2015-12-18 03:54:16,865 ERROR run(159) Runtime error App

2015-12-18 04:09:12,319 ERROR run(159) Runtime error App

2015-12-18 09:02:19,790 ERROR run(159) Runtime error App

2015-12-21 04:38:43,007 INFO main(91) Stop command

