2015-05-30 15:12:18,955 ERROR get(35) Socket error: CLIENT	GETSTARTUP	2

2015-05-30 15:12:19,788 ERROR run(146) Runtime error App

2015-05-30 15:12:19,788 ERROR run(146) Runtime error App

2015-05-30 15:13:24,406 INFO main(75) Stop command

2015-05-30 15:13:36,788 ERROR get(35) Socket error: CLIENT	GETSTARTUP	2

2015-05-30 15:13:36,788 ERROR get(35) Socket error: CLIENT	GETSTARTUP	2

2015-05-30 15:25:13,191 ERROR get(35) Socket error: CLIENT	GETSTARTUP	2

2015-05-30 15:25:13,191 ERROR get(35) Socket error: CLIENT	GETSTARTUP	2

2015-05-30 15:25:13,191 ERROR get(35) Socket error: CLIENT	GETSTARTUP	2

2015-05-30 15:25:13,195 ERROR run(146) Runtime error App

2015-05-30 15:25:13,195 ERROR run(146) Runtime error App

2015-05-30 15:25:13,195 ERROR run(146) Runtime error App

2015-05-30 15:26:04,441 INFO main(75) Stop command

2015-05-30 15:26:12,629 ERROR get(35) Socket error: CLIENT	GETSTARTUP	2

2015-05-30 15:26:12,629 ERROR get(35) Socket error: CLIENT	GETSTARTUP	2

2015-05-30 15:26:28,723 ERROR get(35) Socket error: CLIENT	GETSTARTUP	2

2015-05-30 15:26:28,723 ERROR get(35) Socket error: CLIENT	GETSTARTUP	2

2015-05-30 15:26:28,723 ERROR get(35) Socket error: CLIENT	GETSTARTUP	2

2015-05-30 15:28:32,479 ERROR get(35) Socket error: CLIENT	GETSTARTUP	2

2015-05-30 15:28:32,479 ERROR get(35) Socket error: CLIENT	GETSTARTUP	2

2015-05-30 15:28:32,479 ERROR get(35) Socket error: CLIENT	GETSTARTUP	2

2015-05-30 15:28:32,479 ERROR get(35) Socket error: CLIENT	GETSTARTUP	2

2015-05-30 15:28:32,483 ERROR run(146) Runtime error App

2015-05-30 15:28:32,483 ERROR run(146) Runtime error App

2015-05-30 15:28:32,483 ERROR run(146) Runtime error App

2015-05-30 15:28:32,483 ERROR run(146) Runtime error App

2015-05-30 15:29:20,220 INFO main(75) Stop command

2015-05-30 15:29:28,885 ERROR send(19) Socker error-0!

2015-05-30 15:31:30,858 ERROR get(35) Socket error: CLIENT	GETSTARTUP	2

2015-05-30 15:31:30,858 ERROR get(35) Socket error: CLIENT	GETSTARTUP	2

2015-05-30 15:31:30,860 ERROR run(146) Runtime error App

2015-05-30 15:31:30,860 ERROR run(146) Runtime error App

2015-05-30 15:32:13,600 INFO main(75) Stop command

2015-05-30 15:32:24,428 ERROR get(35) Socket error: CLIENT	GETSTARTUP	2

2015-05-30 15:32:24,428 ERROR get(35) Socket error: CLIENT	GETSTARTUP	2

2015-05-30 15:34:32,556 ERROR get(35) Socket error: CLIENT	GETSTARTUP	2

2015-05-30 15:34:32,556 ERROR get(35) Socket error: CLIENT	GETSTARTUP	2

2015-05-30 15:34:32,556 ERROR get(35) Socket error: CLIENT	GETSTARTUP	2

2015-05-30 15:34:32,567 ERROR run(146) Runtime error App

2015-05-30 15:34:32,567 ERROR run(146) Runtime error App

2015-05-30 15:34:32,567 ERROR run(146) Runtime error App

2015-05-30 15:35:10,111 INFO main(75) Stop command

2015-05-30 15:35:20,527 ERROR get(35) Socket error: CLIENT	GETSTARTUP	2

2015-05-30 15:35:20,527 ERROR get(35) Socket error: CLIENT	GETSTARTUP	2

2015-05-30 15:35:28,846 ERROR get(35) Socket error: CLIENT	GETSTARTUP	2

2015-05-30 15:35:28,846 ERROR get(35) Socket error: CLIENT	GETSTARTUP	2

2015-05-30 15:35:28,846 ERROR get(35) Socket error: CLIENT	GETSTARTUP	2

2015-05-30 15:37:17,377 ERROR get(35) Socket error: CLIENT	GETSTARTUP	2

2015-05-30 15:37:17,377 ERROR get(35) Socket error: CLIENT	GETSTARTUP	2

2015-05-30 15:37:17,377 ERROR get(35) Socket error: CLIENT	GETSTARTUP	2

2015-05-30 15:37:17,377 ERROR get(35) Socket error: CLIENT	GETSTARTUP	2

2015-05-30 15:37:17,381 ERROR run(146) Runtime error App

2015-05-30 15:37:17,381 ERROR run(146) Runtime error App

2015-05-30 15:37:17,381 ERROR run(146) Runtime error App

2015-05-30 15:37:17,381 ERROR run(146) Runtime error App

2015-05-30 15:37:39,854 ERROR readConfig(193) <class 'sqlite3.OperationalError'>

2015-05-30 15:38:05,644 ERROR readConfig(193) <class 'sqlite3.OperationalError'>

2015-05-30 15:38:05,644 ERROR readConfig(193) <class 'sqlite3.OperationalError'>

2015-05-30 15:38:09,900 ERROR readConfig(193) <class 'sqlite3.OperationalError'>

2015-05-30 15:38:09,900 ERROR readConfig(193) <class 'sqlite3.OperationalError'>

2015-05-30 15:38:09,900 ERROR readConfig(193) <class 'sqlite3.OperationalError'>

2015-05-30 15:40:04,887 ERROR get(35) Socket error: CLIENT	GETSTARTUP	2

2015-05-30 15:40:04,887 ERROR get(35) Socket error: CLIENT	GETSTARTUP	2

2015-05-30 15:40:04,887 ERROR get(35) Socket error: CLIENT	GETSTARTUP	2

2015-05-30 15:40:04,887 ERROR get(35) Socket error: CLIENT	GETSTARTUP	2

2015-05-30 15:40:04,894 ERROR run(146) Runtime error App

2015-05-30 15:40:04,894 ERROR run(146) Runtime error App

2015-05-30 15:40:04,894 ERROR run(146) Runtime error App

2015-05-30 15:40:04,894 ERROR run(146) Runtime error App

2015-05-30 15:40:40,998 ERROR send(19) Socker error-0!

2015-05-30 15:40:40,998 ERROR send(19) Socker error-0!

2015-05-30 15:43:26,684 ERROR get(35) Socket error: CLIENT	GETSTARTUP	2

2015-05-30 15:43:26,684 ERROR get(35) Socket error: CLIENT	GETSTARTUP	2

2015-05-30 15:43:26,688 ERROR run(146) Runtime error App

