2015-05-27 00:30:27,234 ERROR send(19) Socker error-0!

2015-05-27 00:30:58,249 ERROR send(19) Socker error-0!

2015-05-27 23:48:05,897 INFO main(75) Stop command

2015-05-28 00:07:31,575 INFO main(75) Stop command

2015-05-28 00:11:00,408 INFO main(75) Stop command

2015-05-30 13:15:40,028 ERROR send(23) Socket error: D	2	1	018

2015-05-30 13:17:08,494 INFO main(75) Stop command

2015-05-30 14:14:04,422 ERROR send(23) Socket error: D	2	1	033

2015-05-30 14:14:34,427 ERROR send(23) Socket error: D	2	1	033

2015-05-30 14:15:04,430 ERROR send(23) Socket error: D	2	1	033

2015-05-30 14:15:34,433 ERROR send(23) Socket error: D	2	1	033

2015-05-30 14:15:51,402 INFO main(75) Stop command

2015-05-30 14:17:21,444 ERROR send(23) Socket error: D	2	1	033

2015-05-30 14:17:51,448 ERROR send(23) Socket error: D	2	1	033

2015-05-30 14:18:21,491 ERROR send(23) Socket error: D	2	1	033

2015-05-30 14:18:51,511 ERROR send(23) Socket error: D	2	1	033

2015-05-30 14:19:06,636 INFO main(75) Stop command

2015-05-30 14:19:23,045 ERROR get(35) Socket error: CLIENT	GETSTARTUP	2

2015-05-30 14:19:23,045 ERROR get(35) Socket error: CLIENT	GETSTARTUP	2

2015-05-30 14:19:39,486 ERROR get(35) Socket error: CLIENT	GETSTARTUP	2

2015-05-30 14:19:39,486 ERROR get(35) Socket error: CLIENT	GETSTARTUP	2

2015-05-30 14:19:39,486 ERROR get(35) Socket error: CLIENT	GETSTARTUP	2

2015-05-30 14:20:03,181 ERROR get(35) Socket error: CLIENT	GETSTARTUP	2

2015-05-30 14:20:03,181 ERROR get(35) Socket error: CLIENT	GETSTARTUP	2

2015-05-30 14:20:03,181 ERROR get(35) Socket error: CLIENT	GETSTARTUP	2

2015-05-30 14:20:03,181 ERROR get(35) Socket error: CLIENT	GETSTARTUP	2

2015-05-30 14:21:38,010 INFO main(75) Stop command

2015-05-30 14:26:33,141 INFO main(75) Stop command

2015-05-30 14:30:52,852 ERROR send(23) Socket error: D	2	1	033

2015-05-30 14:30:52,852 ERROR send(23) Socket error: D	2	1	033

2015-05-30 14:31:03,859 ERROR send(23) Socket error: D	2	1	033

2015-05-30 14:31:03,859 ERROR send(23) Socket error: D	2	1	033

2015-05-30 14:31:24,868 ERROR send(23) Socket error: D	2	1	033

2015-05-30 14:31:24,868 ERROR send(23) Socket error: D	2	1	033

2015-05-30 14:31:35,709 INFO main(75) Stop command

2015-05-30 14:31:35,709 INFO main(75) Stop command

2015-05-30 14:31:35,901 ERROR send(23) Socket error: D	2	1	033

2015-05-30 14:31:35,901 ERROR send(23) Socket error: D	2	1	033

2015-05-30 14:31:47,081 ERROR send(19) Socker error-0!

2015-05-30 14:31:47,081 ERROR send(19) Socker error-0!

2015-05-30 14:34:49,271 INFO main(75) Stop command

2015-05-30 14:35:49,543 ERROR send(23) Socket error: D	2	1	033

2015-05-30 14:35:49,543 ERROR send(23) Socket error: D	2	1	033

2015-05-30 14:35:50,539 ERROR send(23) Socket error: D	2	1	033

2015-05-30 14:35:50,539 ERROR send(23) Socket error: D	2	1	033

2015-05-30 14:36:24,664 INFO main(75) Stop command

2015-05-30 14:36:24,664 INFO main(75) Stop command

2015-05-30 14:38:48,499 ERROR get(35) Socket error: CLIENT	GETSTARTUP	2

2015-05-30 14:38:48,499 ERROR get(35) Socket error: CLIENT	GETSTARTUP	2

2015-05-30 14:38:48,499 ERROR get(35) Socket error: CLIENT	GETSTARTUP	2

2015-05-30 14:38:48,504 ERROR run(146) Runtime error App

2015-05-30 14:38:48,504 ERROR run(146) Runtime error App

2015-05-30 14:38:48,504 ERROR run(146) Runtime error App

2015-05-30 14:39:49,259 INFO main(75) Stop command

2015-05-30 14:43:03,367 ERROR send(23) Socket error: D	2	1	033

2015-05-30 14:43:03,367 ERROR send(23) Socket error: D	2	1	033

2015-05-30 14:44:16,504 INFO main(75) Stop command

2015-05-30 14:45:32,629 ERROR send(23) Socket error: D	2	1	033

2015-05-30 14:45:32,629 ERROR send(23) Socket error: D	2	1	033

2015-05-30 14:45:53,666 ERROR send(23) Socket error: D	2	1	033

2015-05-30 14:45:53,666 ERROR send(23) Socket error: D	2	1	033

2015-05-30 14:46:36,424 INFO main(75) Stop command

2015-05-30 14:46:36,424 INFO main(75) Stop command

2015-05-30 14:49:22,420 ERROR get(35) Socket error: CLIENT	GETSTARTUP	2

2015-05-30 14:49:22,420 ERROR get(35) Socket error: CLIENT	GETSTARTUP	2

2015-05-30 14:49:22,420 ERROR get(35) Socket error: CLIENT	GETSTARTUP	2

2015-05-30 14:49:22,425 ERROR run(146) Runtime error App

2015-05-30 14:49:22,425 ERROR run(146) Runtime error App

2015-05-30 14:49:22,425 ERROR run(146) Runtime error App

2015-05-30 14:53:44,934 INFO main(75) Stop command

2015-05-30 14:54:00,500 ERROR get(35) Socket error: CLIENT	GETSTARTUP	2

2015-05-30 14:54:00,500 ERROR get(35) Socket error: CLIENT	GETSTARTUP	2

2015-05-30 14:54:36,648 ERROR get(35) Socket error: CLIENT	GETSTARTUP	2

2015-05-30 14:54:36,648 ERROR get(35) Socket error: CLIENT	GETSTARTUP	2

2015-05-30 14:54:36,648 ERROR get(35) Socket error: CLIENT	GETSTARTUP	2

2015-05-30 14:58:33,617 INFO main(75) Stop command

2015-05-30 15:10:10,891 ERROR get(35) Socket error: CLIENT	GETSTARTUP	2

2015-05-30 15:10:10,895 ERROR run(146) Runtime error App

2015-05-30 15:10:55,386 INFO main(75) Stop command

