2015-12-20 00:45:02,441 ERROR send(24) Socket error: /dev/ttyUSB0	1	1

2015-12-20 00:45:26,822 ERROR send(24) Socket error: /dev/ttyUSB0	1	0

2015-12-20 00:45:30,083 ERROR send(24) Socket error: /dev/ttyUSB5	1	1

2015-12-20 00:45:31,832 ERROR send(24) Socket error: /dev/ttyUSB5	1	0

2015-12-20 00:46:26,889 ERROR send(24) Socket error: /dev/ttyUSB0	1	1

2015-12-20 00:46:31,899 ERROR send(24) Socket error: /dev/ttyUSB5	1	1

2015-12-20 00:46:33,657 ERROR send(24) Socket error: /dev/ttyUSB5	1	0

2015-12-20 00:46:51,278 ERROR send(24) Socket error: /dev/ttyUSB0	1	0

2015-12-20 00:47:33,723 ERROR send(24) Socket error: /dev/ttyUSB5	1	1

2015-12-20 00:47:35,495 ERROR send(24) Socket error: /dev/ttyUSB5	1	0

2015-12-20 00:47:51,345 ERROR send(24) Socket error: /dev/ttyUSB0	1	1

2015-12-20 00:48:15,747 ERROR send(24) Socket error: /dev/ttyUSB0	1	0

2015-12-20 00:48:35,562 ERROR send(24) Socket error: /dev/ttyUSB5	1	1

2015-12-20 00:48:37,308 ERROR send(24) Socket error: /dev/ttyUSB5	1	0

2015-12-20 00:49:15,813 ERROR send(24) Socket error: /dev/ttyUSB0	1	1

2015-12-20 00:49:37,374 ERROR send(24) Socket error: /dev/ttyUSB5	1	1

2015-12-20 00:49:39,123 ERROR send(24) Socket error: /dev/ttyUSB5	1	0

2015-12-20 00:49:40,228 ERROR send(24) Socket error: /dev/ttyUSB0	1	0

2015-12-20 00:50:39,190 ERROR send(24) Socket error: /dev/ttyUSB5	1	1

2015-12-20 00:50:40,257 ERROR send(24) Socket error: /dev/ttyUSB0	1	1

2015-12-20 00:50:40,945 ERROR send(24) Socket error: /dev/ttyUSB5	1	0

2015-12-20 00:51:15,236 ERROR send(24) Socket error: /dev/ttyUSB0	1	0

2015-12-20 00:51:41,011 ERROR send(24) Socket error: /dev/ttyUSB5	1	1

2015-12-20 00:51:42,762 ERROR send(24) Socket error: /dev/ttyUSB5	1	0

2015-12-20 00:52:15,303 ERROR send(24) Socket error: /dev/ttyUSB0	1	1

2015-12-20 00:52:39,675 ERROR send(24) Socket error: /dev/ttyUSB0	1	0

2015-12-20 00:52:42,829 ERROR send(24) Socket error: /dev/ttyUSB5	1	1

2015-12-20 00:52:44,578 ERROR send(24) Socket error: /dev/ttyUSB5	1	0

2015-12-20 00:53:39,741 ERROR send(24) Socket error: /dev/ttyUSB0	1	1

2015-12-20 00:53:44,614 ERROR send(24) Socket error: /dev/ttyUSB5	1	1

2015-12-20 00:53:46,397 ERROR send(24) Socket error: /dev/ttyUSB5	1	0

2015-12-20 00:54:04,143 ERROR send(24) Socket error: /dev/ttyUSB0	1	0

2015-12-20 00:54:46,466 ERROR send(24) Socket error: /dev/ttyUSB5	1	1

2015-12-20 00:54:48,331 ERROR send(24) Socket error: /dev/ttyUSB5	1	0

2015-12-20 00:55:04,210 ERROR send(24) Socket error: /dev/ttyUSB0	1	1

2015-12-20 00:55:29,132 ERROR send(24) Socket error: /dev/ttyUSB0	1	0

2015-12-20 00:55:48,406 ERROR send(24) Socket error: /dev/ttyUSB5	1	1

2015-12-20 00:55:50,167 ERROR send(24) Socket error: /dev/ttyUSB5	1	0

2015-12-20 00:56:29,199 ERROR send(24) Socket error: /dev/ttyUSB0	1	1

2015-12-20 00:56:50,233 ERROR send(24) Socket error: /dev/ttyUSB5	1	1

2015-12-20 00:56:51,992 ERROR send(24) Socket error: /dev/ttyUSB5	1	0

2015-12-20 00:56:54,125 ERROR send(24) Socket error: /dev/ttyUSB0	1	0

2015-12-20 00:57:52,059 ERROR send(24) Socket error: /dev/ttyUSB5	1	1

2015-12-20 00:57:53,804 ERROR send(24) Socket error: /dev/ttyUSB5	1	0

2015-12-20 00:57:54,192 ERROR send(24) Socket error: /dev/ttyUSB0	1	1

2015-12-20 00:58:18,554 ERROR send(24) Socket error: /dev/ttyUSB0	1	0

2015-12-20 00:58:53,873 ERROR send(24) Socket error: /dev/ttyUSB5	1	1

2015-12-20 00:58:55,620 ERROR send(24) Socket error: /dev/ttyUSB5	1	0

2015-12-20 00:59:18,621 ERROR send(24) Socket error: /dev/ttyUSB0	1	1

2015-12-20 00:59:43,026 ERROR send(24) Socket error: /dev/ttyUSB0	1	0

2015-12-20 00:59:55,688 ERROR send(24) Socket error: /dev/ttyUSB5	1	1

2015-12-20 00:59:57,537 ERROR send(24) Socket error: /dev/ttyUSB5	1	0

2015-12-20 01:00:43,093 ERROR send(24) Socket error: /dev/ttyUSB0	1	1

2015-12-20 01:00:57,606 ERROR send(24) Socket error: /dev/ttyUSB5	1	1

2015-12-20 01:00:59,362 ERROR send(24) Socket error: /dev/ttyUSB5	1	0

2015-12-20 01:01:07,552 ERROR send(24) Socket error: /dev/ttyUSB0	1	0

2015-12-20 01:01:59,428 ERROR send(24) Socket error: /dev/ttyUSB5	1	1

2015-12-20 01:02:01,179 ERROR send(24) Socket error: /dev/ttyUSB5	1	0

2015-12-20 01:02:07,618 ERROR send(24) Socket error: /dev/ttyUSB0	1	1

2015-12-20 01:02:32,513 ERROR send(24) Socket error: /dev/ttyUSB0	1	0

2015-12-20 01:03:01,245 ERROR send(24) Socket error: /dev/ttyUSB5	1	1

2015-12-20 01:03:02,993 ERROR send(24) Socket error: /dev/ttyUSB5	1	0

2015-12-20 01:03:32,580 ERROR send(24) Socket error: /dev/ttyUSB0	1	1

2015-12-20 01:04:03,015 ERROR send(24) Socket error: /dev/ttyUSB5	1	1

2015-12-20 01:04:04,764 ERROR send(24) Socket error: /dev/ttyUSB5	1	0

2015-12-20 01:04:07,513 ERROR send(24) Socket error: /dev/ttyUSB0	1	0

2015-12-20 01:05:04,830 ERROR send(24) Socket error: /dev/ttyUSB5	1	1

2015-12-20 01:05:06,583 ERROR send(24) Socket error: /dev/ttyUSB5	1	0

2015-12-20 01:05:07,579 ERROR send(24) Socket error: /dev/ttyUSB0	1	1

2015-12-20 01:05:31,961 ERROR send(24) Socket error: /dev/ttyUSB0	1	0

2015-12-20 01:06:06,650 ERROR send(24) Socket error: /dev/ttyUSB5	1	1

2015-12-20 01:06:08,396 ERROR send(24) Socket error: /dev/ttyUSB5	1	0

