2016-01-04 04:11:17,019 ERROR send(24) Socket error: /dev/ttyUSB0	1	1

2016-01-04 04:11:18,803 ERROR send(24) Socket error: /dev/ttyUSB0	1	0

2016-01-04 04:11:48,837 ERROR send(24) Socket error: /dev/ttyUSB0	1	1

2016-01-04 04:11:50,601 ERROR send(24) Socket error: /dev/ttyUSB0	1	0

2016-01-04 04:12:20,634 ERROR send(24) Socket error: /dev/ttyUSB0	1	1

2016-01-04 04:12:22,407 ERROR send(24) Socket error: /dev/ttyUSB0	1	0

2016-01-04 04:12:52,448 ERROR send(24) Socket error: /dev/ttyUSB0	1	1

2016-01-04 04:12:54,248 ERROR send(24) Socket error: /dev/ttyUSB0	1	0

2016-01-04 04:13:24,286 ERROR send(24) Socket error: /dev/ttyUSB0	1	1

2016-01-04 04:13:26,062 ERROR send(24) Socket error: /dev/ttyUSB0	1	0

2016-01-04 04:13:56,097 ERROR send(24) Socket error: /dev/ttyUSB0	1	1

2016-01-04 04:13:57,868 ERROR send(24) Socket error: /dev/ttyUSB0	1	0

2016-01-04 04:14:27,902 ERROR send(24) Socket error: /dev/ttyUSB0	1	1

2016-01-04 04:14:29,662 ERROR send(24) Socket error: /dev/ttyUSB0	1	0

2016-01-04 04:14:59,696 ERROR send(24) Socket error: /dev/ttyUSB0	1	1

2016-01-04 04:15:01,464 ERROR send(24) Socket error: /dev/ttyUSB0	1	0

2016-01-04 04:15:31,501 ERROR send(24) Socket error: /dev/ttyUSB0	1	1

2016-01-04 04:15:33,747 ERROR send(24) Socket error: /dev/ttyUSB0	1	0

2016-01-04 04:16:03,782 ERROR send(24) Socket error: /dev/ttyUSB0	1	1

2016-01-04 04:16:05,510 ERROR send(24) Socket error: /dev/ttyUSB0	1	0

2016-01-04 04:16:35,544 ERROR send(24) Socket error: /dev/ttyUSB0	1	1

2016-01-04 04:16:37,412 ERROR send(24) Socket error: /dev/ttyUSB0	1	0

2016-01-04 04:17:07,450 ERROR send(24) Socket error: /dev/ttyUSB0	1	1

2016-01-04 04:17:09,220 ERROR send(24) Socket error: /dev/ttyUSB0	1	0

2016-01-04 04:17:39,259 ERROR send(24) Socket error: /dev/ttyUSB0	1	1

2016-01-04 04:17:41,035 ERROR send(24) Socket error: /dev/ttyUSB0	1	0

2016-01-04 04:18:11,073 ERROR send(24) Socket error: /dev/ttyUSB0	1	1

2016-01-04 04:18:12,855 ERROR send(24) Socket error: /dev/ttyUSB0	1	0

2016-01-04 04:18:42,890 ERROR send(24) Socket error: /dev/ttyUSB0	1	1

2016-01-04 04:18:44,662 ERROR send(24) Socket error: /dev/ttyUSB0	1	0

2016-01-04 04:19:14,697 ERROR send(24) Socket error: /dev/ttyUSB0	1	1

2016-01-04 04:19:16,490 ERROR send(24) Socket error: /dev/ttyUSB0	1	0

2016-01-04 04:19:46,525 ERROR send(24) Socket error: /dev/ttyUSB0	1	1

2016-01-04 04:19:48,289 ERROR send(24) Socket error: /dev/ttyUSB0	1	0

2016-01-04 04:20:18,329 ERROR send(24) Socket error: /dev/ttyUSB0	1	1

2016-01-04 04:20:20,123 ERROR send(24) Socket error: /dev/ttyUSB0	1	0

2016-01-04 04:20:50,165 ERROR send(24) Socket error: /dev/ttyUSB0	1	1

2016-01-04 04:20:51,943 ERROR send(24) Socket error: /dev/ttyUSB0	1	0

2016-01-04 04:21:21,981 ERROR send(24) Socket error: /dev/ttyUSB0	1	1

2016-01-04 04:21:23,744 ERROR send(24) Socket error: /dev/ttyUSB0	1	0

2016-01-04 04:21:53,778 ERROR send(24) Socket error: /dev/ttyUSB0	1	1

2016-01-04 04:21:55,562 ERROR send(24) Socket error: /dev/ttyUSB0	1	0

2016-01-04 04:22:25,601 ERROR send(24) Socket error: /dev/ttyUSB0	1	1

2016-01-04 04:22:27,394 ERROR send(24) Socket error: /dev/ttyUSB0	1	0

2016-01-04 04:22:57,429 ERROR send(24) Socket error: /dev/ttyUSB0	1	1

2016-01-04 04:22:59,434 ERROR send(24) Socket error: /dev/ttyUSB0	1	0

2016-01-04 04:23:29,484 ERROR send(24) Socket error: /dev/ttyUSB0	1	1

2016-01-04 04:23:31,249 ERROR send(24) Socket error: /dev/ttyUSB0	1	0

2016-01-04 04:24:01,284 ERROR send(24) Socket error: /dev/ttyUSB0	1	1

2016-01-04 04:24:03,121 ERROR send(24) Socket error: /dev/ttyUSB0	1	0

2016-01-04 04:24:33,155 ERROR send(24) Socket error: /dev/ttyUSB0	1	1

2016-01-04 04:24:34,956 ERROR send(24) Socket error: /dev/ttyUSB0	1	0

2016-01-04 04:25:04,995 ERROR send(24) Socket error: /dev/ttyUSB0	1	1

2016-01-04 04:25:06,759 ERROR send(24) Socket error: /dev/ttyUSB0	1	0

2016-01-04 04:25:36,804 ERROR send(24) Socket error: /dev/ttyUSB0	1	1

2016-01-04 04:25:38,537 ERROR send(24) Socket error: /dev/ttyUSB0	1	0

2016-01-04 04:26:08,573 ERROR send(24) Socket error: /dev/ttyUSB0	1	1

2016-01-04 04:26:10,323 ERROR send(24) Socket error: /dev/ttyUSB0	1	0

2016-01-04 04:26:40,357 ERROR send(24) Socket error: /dev/ttyUSB0	1	1

2016-01-04 04:26:42,131 ERROR send(24) Socket error: /dev/ttyUSB0	1	0

2016-01-04 04:27:12,171 ERROR send(24) Socket error: /dev/ttyUSB0	1	1

2016-01-04 04:27:13,941 ERROR send(24) Socket error: /dev/ttyUSB0	1	0

2016-01-04 04:27:43,980 ERROR send(24) Socket error: /dev/ttyUSB0	1	1

2016-01-04 04:27:45,789 ERROR send(24) Socket error: /dev/ttyUSB0	1	0

2016-01-04 04:28:15,823 ERROR send(24) Socket error: /dev/ttyUSB0	1	1

2016-01-04 04:28:17,595 ERROR send(24) Socket error: /dev/ttyUSB0	1	0

2016-01-04 04:28:47,630 ERROR send(24) Socket error: /dev/ttyUSB0	1	1

2016-01-04 04:28:49,421 ERROR send(24) Socket error: /dev/ttyUSB0	1	0

2016-01-04 04:29:19,454 ERROR send(24) Socket error: /dev/ttyUSB0	1	1

2016-01-04 04:29:21,227 ERROR send(24) Socket error: /dev/ttyUSB0	1	0

2016-01-04 04:29:51,261 ERROR send(24) Socket error: /dev/ttyUSB0	1	1

2016-01-04 04:29:53,033 ERROR send(24) Socket error: /dev/ttyUSB0	1	0

