2016-01-04 04:30:23,071 ERROR send(24) Socket error: /dev/ttyUSB0	1	1

2016-01-04 04:30:24,837 ERROR send(24) Socket error: /dev/ttyUSB0	1	0

2016-01-04 04:30:54,876 ERROR send(24) Socket error: /dev/ttyUSB0	1	1

2016-01-04 04:30:56,645 ERROR send(24) Socket error: /dev/ttyUSB0	1	0

2016-01-04 04:31:26,679 ERROR send(24) Socket error: /dev/ttyUSB0	1	1

2016-01-04 04:31:28,471 ERROR send(24) Socket error: /dev/ttyUSB0	1	0

2016-01-04 04:31:58,513 ERROR send(24) Socket error: /dev/ttyUSB0	1	1

2016-01-04 04:32:00,278 ERROR send(24) Socket error: /dev/ttyUSB0	1	0

2016-01-04 04:32:30,312 ERROR send(24) Socket error: /dev/ttyUSB0	1	1

2016-01-04 04:32:32,077 ERROR send(24) Socket error: /dev/ttyUSB0	1	0

2016-01-04 04:33:02,116 ERROR send(24) Socket error: /dev/ttyUSB0	1	1

2016-01-04 04:33:03,894 ERROR send(24) Socket error: /dev/ttyUSB0	1	0

2016-01-04 04:33:33,929 ERROR send(24) Socket error: /dev/ttyUSB0	1	1

2016-01-04 04:33:35,709 ERROR send(24) Socket error: /dev/ttyUSB0	1	0

2016-01-04 04:34:05,747 ERROR send(24) Socket error: /dev/ttyUSB0	1	1

2016-01-04 04:34:07,512 ERROR send(24) Socket error: /dev/ttyUSB0	1	0

2016-01-04 04:34:37,546 ERROR send(24) Socket error: /dev/ttyUSB0	1	1

2016-01-04 04:34:39,326 ERROR send(24) Socket error: /dev/ttyUSB0	1	0

2016-01-04 04:35:09,361 ERROR send(24) Socket error: /dev/ttyUSB0	1	1

2016-01-04 04:35:11,123 ERROR send(24) Socket error: /dev/ttyUSB0	1	0

2016-01-04 04:35:41,155 ERROR send(24) Socket error: /dev/ttyUSB0	1	1

2016-01-04 04:35:42,887 ERROR send(24) Socket error: /dev/ttyUSB0	1	0

2016-01-04 04:36:12,921 ERROR send(24) Socket error: /dev/ttyUSB0	1	1

2016-01-04 04:36:14,704 ERROR send(24) Socket error: /dev/ttyUSB0	1	0

2016-01-04 04:36:44,738 ERROR send(24) Socket error: /dev/ttyUSB0	1	1

2016-01-04 04:36:46,504 ERROR send(24) Socket error: /dev/ttyUSB0	1	0

2016-01-04 04:37:16,538 ERROR send(24) Socket error: /dev/ttyUSB0	1	1

2016-01-04 04:37:18,316 ERROR send(24) Socket error: /dev/ttyUSB0	1	0

2016-01-04 04:37:48,355 ERROR send(24) Socket error: /dev/ttyUSB0	1	1

2016-01-04 04:37:50,146 ERROR send(24) Socket error: /dev/ttyUSB0	1	0

2016-01-04 04:38:20,181 ERROR send(24) Socket error: /dev/ttyUSB0	1	1

2016-01-04 04:38:21,954 ERROR send(24) Socket error: /dev/ttyUSB0	1	0

2016-01-04 04:38:51,993 ERROR send(24) Socket error: /dev/ttyUSB0	1	1

2016-01-04 04:38:53,765 ERROR send(24) Socket error: /dev/ttyUSB0	1	0

2016-01-04 04:39:23,804 ERROR send(24) Socket error: /dev/ttyUSB0	1	1

2016-01-04 04:39:25,574 ERROR send(24) Socket error: /dev/ttyUSB0	1	0

2016-01-04 04:39:55,612 ERROR send(24) Socket error: /dev/ttyUSB0	1	1

2016-01-04 04:39:57,468 ERROR send(24) Socket error: /dev/ttyUSB0	1	0

2016-01-04 04:40:27,503 ERROR send(24) Socket error: /dev/ttyUSB0	1	1

2016-01-04 04:40:29,298 ERROR send(24) Socket error: /dev/ttyUSB0	1	0

2016-01-04 04:40:59,334 ERROR send(24) Socket error: /dev/ttyUSB0	1	1

2016-01-04 04:41:01,110 ERROR send(24) Socket error: /dev/ttyUSB0	1	0

2016-01-04 04:41:31,144 ERROR send(24) Socket error: /dev/ttyUSB0	1	1

2016-01-04 04:41:32,928 ERROR send(24) Socket error: /dev/ttyUSB0	1	0

2016-01-04 04:42:02,962 ERROR send(24) Socket error: /dev/ttyUSB0	1	1

2016-01-04 04:42:04,726 ERROR send(24) Socket error: /dev/ttyUSB0	1	0

2016-01-04 04:42:34,759 ERROR send(24) Socket error: /dev/ttyUSB0	1	1

2016-01-04 04:42:36,529 ERROR send(24) Socket error: /dev/ttyUSB0	1	0

2016-01-04 04:43:06,568 ERROR send(24) Socket error: /dev/ttyUSB0	1	1

2016-01-04 04:43:08,380 ERROR send(24) Socket error: /dev/ttyUSB0	1	0

2016-01-04 04:43:38,413 ERROR send(24) Socket error: /dev/ttyUSB0	1	1

2016-01-04 04:43:40,218 ERROR send(24) Socket error: /dev/ttyUSB0	1	0

2016-01-04 04:44:10,265 ERROR send(24) Socket error: /dev/ttyUSB0	1	1

2016-01-04 04:44:12,036 ERROR send(24) Socket error: /dev/ttyUSB0	1	0

2016-01-04 04:44:42,075 ERROR send(24) Socket error: /dev/ttyUSB0	1	1

2016-01-04 04:44:43,844 ERROR send(24) Socket error: /dev/ttyUSB0	1	0

2016-01-04 04:45:13,878 ERROR send(24) Socket error: /dev/ttyUSB0	1	1

2016-01-04 04:45:15,676 ERROR send(24) Socket error: /dev/ttyUSB0	1	0

2016-01-04 04:45:45,711 ERROR send(24) Socket error: /dev/ttyUSB0	1	1

2016-01-04 04:45:47,434 ERROR send(24) Socket error: /dev/ttyUSB0	1	0

2016-01-04 04:46:17,468 ERROR send(24) Socket error: /dev/ttyUSB0	1	1

2016-01-04 04:46:19,548 ERROR send(24) Socket error: /dev/ttyUSB0	1	0

2016-01-04 04:46:49,583 ERROR send(24) Socket error: /dev/ttyUSB0	1	1

2016-01-04 04:46:51,356 ERROR send(24) Socket error: /dev/ttyUSB0	1	0

2016-01-04 04:47:21,390 ERROR send(24) Socket error: /dev/ttyUSB0	1	1

2016-01-04 04:47:23,239 ERROR send(24) Socket error: /dev/ttyUSB0	1	0

2016-01-04 04:47:53,278 ERROR send(24) Socket error: /dev/ttyUSB0	1	1

2016-01-04 04:47:55,053 ERROR send(24) Socket error: /dev/ttyUSB0	1	0

2016-01-04 04:48:25,091 ERROR send(24) Socket error: /dev/ttyUSB0	1	1

2016-01-04 04:48:26,861 ERROR send(24) Socket error: /dev/ttyUSB0	1	0

2016-01-04 04:48:56,900 ERROR send(24) Socket error: /dev/ttyUSB0	1	1

2016-01-04 04:48:58,925 ERROR send(24) Socket error: /dev/ttyUSB0	1	0

