2016-01-03 03:12:23,461 ERROR send(24) Socket error: /dev/ttyUSB2	1	0

2016-01-03 03:13:23,534 ERROR send(24) Socket error: /dev/ttyUSB2	1	1

2016-01-03 03:13:24,173 ERROR send(24) Socket error: /dev/ttyUSB2	1	0

2016-01-03 03:14:24,237 ERROR send(24) Socket error: /dev/ttyUSB2	1	1

2016-01-03 03:14:24,902 ERROR send(24) Socket error: /dev/ttyUSB2	1	0

2016-01-03 03:15:24,966 ERROR send(24) Socket error: /dev/ttyUSB2	1	1

2016-01-03 03:15:25,605 ERROR send(24) Socket error: /dev/ttyUSB2	1	0

2016-01-03 03:16:25,669 ERROR send(24) Socket error: /dev/ttyUSB2	1	1

2016-01-03 03:16:26,315 ERROR send(24) Socket error: /dev/ttyUSB2	1	0

2016-01-03 03:17:26,379 ERROR send(24) Socket error: /dev/ttyUSB2	1	1

2016-01-03 03:17:27,018 ERROR send(24) Socket error: /dev/ttyUSB2	1	0

2016-01-03 03:18:27,082 ERROR send(24) Socket error: /dev/ttyUSB2	1	1

2016-01-03 03:18:27,728 ERROR send(24) Socket error: /dev/ttyUSB2	1	0

