2016-01-03 02:35:57,835 ERROR send(24) Socket error: /dev/ttyUSB2	1	0

2016-01-03 02:36:57,901 ERROR send(24) Socket error: /dev/ttyUSB2	1	1

2016-01-03 02:36:58,632 ERROR send(24) Socket error: /dev/ttyUSB2	1	0

2016-01-03 02:37:58,696 ERROR send(24) Socket error: /dev/ttyUSB2	1	1

2016-01-03 02:37:59,339 ERROR send(24) Socket error: /dev/ttyUSB2	1	0

2016-01-03 02:38:59,403 ERROR send(24) Socket error: /dev/ttyUSB2	1	1

2016-01-03 02:39:00,042 ERROR send(24) Socket error: /dev/ttyUSB2	1	0

2016-01-03 02:40:00,106 ERROR send(24) Socket error: /dev/ttyUSB2	1	1

2016-01-03 02:40:00,768 ERROR send(24) Socket error: /dev/ttyUSB2	1	0

2016-01-03 02:41:00,832 ERROR send(24) Socket error: /dev/ttyUSB2	1	1

2016-01-03 02:41:01,471 ERROR send(24) Socket error: /dev/ttyUSB2	1	0

2016-01-03 02:42:01,535 ERROR send(24) Socket error: /dev/ttyUSB2	1	1

2016-01-03 02:42:02,180 ERROR send(24) Socket error: /dev/ttyUSB2	1	0

2016-01-03 02:43:02,244 ERROR send(24) Socket error: /dev/ttyUSB2	1	1

2016-01-03 02:43:02,882 ERROR send(24) Socket error: /dev/ttyUSB2	1	0

2016-01-03 02:44:02,886 ERROR send(24) Socket error: /dev/ttyUSB2	1	1

2016-01-03 02:44:03,533 ERROR send(24) Socket error: /dev/ttyUSB2	1	0

2016-01-03 02:45:03,597 ERROR send(24) Socket error: /dev/ttyUSB2	1	1

2016-01-03 02:45:04,256 ERROR send(24) Socket error: /dev/ttyUSB2	1	0

2016-01-03 02:46:04,320 ERROR send(24) Socket error: /dev/ttyUSB2	1	1

2016-01-03 02:46:04,959 ERROR send(24) Socket error: /dev/ttyUSB2	1	0

2016-01-03 02:47:05,023 ERROR send(24) Socket error: /dev/ttyUSB2	1	1

2016-01-03 02:47:05,672 ERROR send(24) Socket error: /dev/ttyUSB2	1	0

2016-01-03 02:48:05,736 ERROR send(24) Socket error: /dev/ttyUSB2	1	1

2016-01-03 02:48:06,377 ERROR send(24) Socket error: /dev/ttyUSB2	1	0

2016-01-03 02:49:06,441 ERROR send(24) Socket error: /dev/ttyUSB2	1	1

2016-01-03 02:49:07,085 ERROR send(24) Socket error: /dev/ttyUSB2	1	0

2016-01-03 02:50:07,149 ERROR send(24) Socket error: /dev/ttyUSB2	1	1

2016-01-03 02:50:07,812 ERROR send(24) Socket error: /dev/ttyUSB2	1	0

2016-01-03 02:51:07,876 ERROR send(24) Socket error: /dev/ttyUSB2	1	1

2016-01-03 02:51:08,516 ERROR send(24) Socket error: /dev/ttyUSB2	1	0

2016-01-03 02:52:08,580 ERROR send(24) Socket error: /dev/ttyUSB2	1	1

2016-01-03 02:52:09,224 ERROR send(24) Socket error: /dev/ttyUSB2	1	0

2016-01-03 02:53:09,289 ERROR send(24) Socket error: /dev/ttyUSB2	1	1

2016-01-03 02:53:09,929 ERROR send(24) Socket error: /dev/ttyUSB2	1	0

2016-01-03 02:54:09,993 ERROR send(24) Socket error: /dev/ttyUSB2	1	1

2016-01-03 02:54:10,642 ERROR send(24) Socket error: /dev/ttyUSB2	1	0

2016-01-03 02:55:10,706 ERROR send(24) Socket error: /dev/ttyUSB2	1	1

2016-01-03 02:55:11,366 ERROR send(24) Socket error: /dev/ttyUSB2	1	0

2016-01-03 02:56:11,430 ERROR send(24) Socket error: /dev/ttyUSB2	1	1

2016-01-03 02:56:12,071 ERROR send(24) Socket error: /dev/ttyUSB2	1	0

2016-01-03 02:57:12,136 ERROR send(24) Socket error: /dev/ttyUSB2	1	1

2016-01-03 02:57:12,780 ERROR send(24) Socket error: /dev/ttyUSB2	1	0

2016-01-03 02:58:12,844 ERROR send(24) Socket error: /dev/ttyUSB2	1	1

2016-01-03 02:58:13,483 ERROR send(24) Socket error: /dev/ttyUSB2	1	0

2016-01-03 02:59:13,547 ERROR send(24) Socket error: /dev/ttyUSB2	1	1

2016-01-03 02:59:14,192 ERROR send(24) Socket error: /dev/ttyUSB2	1	0

2016-01-03 03:00:14,256 ERROR send(24) Socket error: /dev/ttyUSB2	1	1

2016-01-03 03:00:14,916 ERROR send(24) Socket error: /dev/ttyUSB2	1	0

2016-01-03 03:01:14,980 ERROR send(24) Socket error: /dev/ttyUSB2	1	1

2016-01-03 03:01:15,620 ERROR send(24) Socket error: /dev/ttyUSB2	1	0

2016-01-03 03:02:15,684 ERROR send(24) Socket error: /dev/ttyUSB2	1	1

2016-01-03 03:02:16,328 ERROR send(24) Socket error: /dev/ttyUSB2	1	0

2016-01-03 03:03:16,393 ERROR send(24) Socket error: /dev/ttyUSB2	1	1

2016-01-03 03:03:17,037 ERROR send(24) Socket error: /dev/ttyUSB2	1	0

2016-01-03 03:04:17,048 ERROR send(24) Socket error: /dev/ttyUSB2	1	1

2016-01-03 03:04:17,695 ERROR send(24) Socket error: /dev/ttyUSB2	1	0

2016-01-03 03:05:17,762 ERROR send(24) Socket error: /dev/ttyUSB2	1	1

2016-01-03 03:05:18,424 ERROR send(24) Socket error: /dev/ttyUSB2	1	0

2016-01-03 03:06:18,488 ERROR send(24) Socket error: /dev/ttyUSB2	1	1

2016-01-03 03:06:19,126 ERROR send(24) Socket error: /dev/ttyUSB2	1	0

2016-01-03 03:07:19,190 ERROR send(24) Socket error: /dev/ttyUSB2	1	1

2016-01-03 03:07:19,835 ERROR send(24) Socket error: /dev/ttyUSB2	1	0

2016-01-03 03:08:19,899 ERROR send(24) Socket error: /dev/ttyUSB2	1	1

2016-01-03 03:08:20,536 ERROR send(24) Socket error: /dev/ttyUSB2	1	0

2016-01-03 03:09:20,600 ERROR send(24) Socket error: /dev/ttyUSB2	1	1

2016-01-03 03:09:21,247 ERROR send(24) Socket error: /dev/ttyUSB2	1	0

2016-01-03 03:10:21,311 ERROR send(24) Socket error: /dev/ttyUSB2	1	1

2016-01-03 03:10:21,972 ERROR send(24) Socket error: /dev/ttyUSB2	1	0

2016-01-03 03:11:22,036 ERROR send(24) Socket error: /dev/ttyUSB2	1	1

2016-01-03 03:11:22,674 ERROR send(24) Socket error: /dev/ttyUSB2	1	0

2016-01-03 03:12:22,738 ERROR send(24) Socket error: /dev/ttyUSB2	1	1

