2016-01-03 01:59:32,202 ERROR send(24) Socket error: /dev/ttyUSB2	1	0

2016-01-03 02:00:32,268 ERROR send(24) Socket error: /dev/ttyUSB2	1	1

2016-01-03 02:00:32,912 ERROR send(24) Socket error: /dev/ttyUSB2	1	0

2016-01-03 02:01:32,977 ERROR send(24) Socket error: /dev/ttyUSB2	1	1

2016-01-03 02:01:33,638 ERROR send(24) Socket error: /dev/ttyUSB2	1	0

2016-01-03 02:02:33,702 ERROR send(24) Socket error: /dev/ttyUSB2	1	1

2016-01-03 02:02:34,342 ERROR send(24) Socket error: /dev/ttyUSB2	1	0

2016-01-03 02:03:34,406 ERROR send(24) Socket error: /dev/ttyUSB2	1	1

2016-01-03 02:03:35,048 ERROR send(24) Socket error: /dev/ttyUSB2	1	0

2016-01-03 02:04:35,112 ERROR send(24) Socket error: /dev/ttyUSB2	1	1

2016-01-03 02:04:35,752 ERROR send(24) Socket error: /dev/ttyUSB2	1	0

2016-01-03 02:05:35,816 ERROR send(24) Socket error: /dev/ttyUSB2	1	1

2016-01-03 02:05:36,454 ERROR send(24) Socket error: /dev/ttyUSB2	1	0

2016-01-03 02:06:36,518 ERROR send(24) Socket error: /dev/ttyUSB2	1	1

2016-01-03 02:06:37,182 ERROR send(24) Socket error: /dev/ttyUSB2	1	0

2016-01-03 02:07:37,246 ERROR send(24) Socket error: /dev/ttyUSB2	1	1

2016-01-03 02:07:37,884 ERROR send(24) Socket error: /dev/ttyUSB2	1	0

2016-01-03 02:08:37,921 ERROR send(24) Socket error: /dev/ttyUSB2	1	1

2016-01-03 02:08:38,565 ERROR send(24) Socket error: /dev/ttyUSB2	1	0

2016-01-03 02:09:38,635 ERROR send(24) Socket error: /dev/ttyUSB2	1	1

2016-01-03 02:09:39,295 ERROR send(24) Socket error: /dev/ttyUSB2	1	0

2016-01-03 02:10:39,359 ERROR send(24) Socket error: /dev/ttyUSB2	1	1

2016-01-03 02:10:40,000 ERROR send(24) Socket error: /dev/ttyUSB2	1	0

2016-01-03 02:11:40,065 ERROR send(24) Socket error: /dev/ttyUSB2	1	1

2016-01-03 02:11:40,725 ERROR send(24) Socket error: /dev/ttyUSB2	1	0

2016-01-03 02:12:40,789 ERROR send(24) Socket error: /dev/ttyUSB2	1	1

2016-01-03 02:12:41,428 ERROR send(24) Socket error: /dev/ttyUSB2	1	0

2016-01-03 02:13:41,492 ERROR send(24) Socket error: /dev/ttyUSB2	1	1

2016-01-03 02:13:42,132 ERROR send(24) Socket error: /dev/ttyUSB2	1	0

2016-01-03 02:14:42,196 ERROR send(24) Socket error: /dev/ttyUSB2	1	1

2016-01-03 02:14:42,839 ERROR send(24) Socket error: /dev/ttyUSB2	1	0

2016-01-03 02:15:42,886 ERROR send(24) Socket error: /dev/ttyUSB2	1	1

2016-01-03 02:15:43,526 ERROR send(24) Socket error: /dev/ttyUSB2	1	0

2016-01-03 02:16:43,590 ERROR send(24) Socket error: /dev/ttyUSB2	1	1

2016-01-03 02:16:44,252 ERROR send(24) Socket error: /dev/ttyUSB2	1	0

2016-01-03 02:17:44,316 ERROR send(24) Socket error: /dev/ttyUSB2	1	1

2016-01-03 02:17:44,959 ERROR send(24) Socket error: /dev/ttyUSB2	1	0

2016-01-03 02:18:45,023 ERROR send(24) Socket error: /dev/ttyUSB2	1	1

2016-01-03 02:18:45,746 ERROR send(24) Socket error: /dev/ttyUSB2	1	0

2016-01-03 02:19:45,812 ERROR send(24) Socket error: /dev/ttyUSB2	1	1

2016-01-03 02:19:46,458 ERROR send(24) Socket error: /dev/ttyUSB2	1	0

2016-01-03 02:20:46,522 ERROR send(24) Socket error: /dev/ttyUSB2	1	1

2016-01-03 02:20:47,185 ERROR send(24) Socket error: /dev/ttyUSB2	1	0

2016-01-03 02:21:47,249 ERROR send(24) Socket error: /dev/ttyUSB2	1	1

2016-01-03 02:21:47,889 ERROR send(24) Socket error: /dev/ttyUSB2	1	0

2016-01-03 02:22:47,953 ERROR send(24) Socket error: /dev/ttyUSB2	1	1

2016-01-03 02:22:48,597 ERROR send(24) Socket error: /dev/ttyUSB2	1	0

2016-01-03 02:23:48,661 ERROR send(24) Socket error: /dev/ttyUSB2	1	1

2016-01-03 02:23:49,302 ERROR send(24) Socket error: /dev/ttyUSB2	1	0

2016-01-03 02:24:49,366 ERROR send(24) Socket error: /dev/ttyUSB2	1	1

2016-01-03 02:24:50,011 ERROR send(24) Socket error: /dev/ttyUSB2	1	0

2016-01-03 02:25:50,075 ERROR send(24) Socket error: /dev/ttyUSB2	1	1

2016-01-03 02:25:50,736 ERROR send(24) Socket error: /dev/ttyUSB2	1	0

2016-01-03 02:26:50,800 ERROR send(24) Socket error: /dev/ttyUSB2	1	1

2016-01-03 02:26:51,439 ERROR send(24) Socket error: /dev/ttyUSB2	1	0

2016-01-03 02:27:51,503 ERROR send(24) Socket error: /dev/ttyUSB2	1	1

2016-01-03 02:27:52,146 ERROR send(24) Socket error: /dev/ttyUSB2	1	0

2016-01-03 02:28:52,213 ERROR send(24) Socket error: /dev/ttyUSB2	1	1

2016-01-03 02:28:52,853 ERROR send(24) Socket error: /dev/ttyUSB2	1	0

2016-01-03 02:29:52,917 ERROR send(24) Socket error: /dev/ttyUSB2	1	1

2016-01-03 02:29:53,562 ERROR send(24) Socket error: /dev/ttyUSB2	1	0

2016-01-03 02:30:53,626 ERROR send(24) Socket error: /dev/ttyUSB2	1	1

2016-01-03 02:30:54,290 ERROR send(24) Socket error: /dev/ttyUSB2	1	0

2016-01-03 02:31:54,354 ERROR send(24) Socket error: /dev/ttyUSB2	1	1

2016-01-03 02:31:54,994 ERROR send(24) Socket error: /dev/ttyUSB2	1	0

2016-01-03 02:32:55,058 ERROR send(24) Socket error: /dev/ttyUSB2	1	1

2016-01-03 02:32:55,701 ERROR send(24) Socket error: /dev/ttyUSB2	1	0

2016-01-03 02:33:55,765 ERROR send(24) Socket error: /dev/ttyUSB2	1	1

2016-01-03 02:33:56,408 ERROR send(24) Socket error: /dev/ttyUSB2	1	0

2016-01-03 02:34:56,472 ERROR send(24) Socket error: /dev/ttyUSB2	1	1

2016-01-03 02:34:57,111 ERROR send(24) Socket error: /dev/ttyUSB2	1	0

2016-01-03 02:35:57,175 ERROR send(24) Socket error: /dev/ttyUSB2	1	1

