2015-12-20 00:32:12,553 ERROR send(24) Socket error: /dev/ttyUSB0	1	1

2015-12-20 00:32:37,599 ERROR send(24) Socket error: /dev/ttyUSB0	1	0

2015-12-20 00:33:07,891 ERROR send(24) Socket error: /dev/ttyUSB5	1	1

2015-12-20 00:33:09,713 ERROR send(24) Socket error: /dev/ttyUSB5	1	0

2015-12-20 00:33:37,666 ERROR send(24) Socket error: /dev/ttyUSB0	1	1

2015-12-20 00:34:02,097 ERROR send(24) Socket error: /dev/ttyUSB0	1	0

2015-12-20 00:34:09,782 ERROR send(24) Socket error: /dev/ttyUSB5	1	1

2015-12-20 00:34:11,537 ERROR send(24) Socket error: /dev/ttyUSB5	1	0

2015-12-20 00:35:02,163 ERROR send(24) Socket error: /dev/ttyUSB0	1	1

2015-12-20 00:35:11,603 ERROR send(24) Socket error: /dev/ttyUSB5	1	1

2015-12-20 00:35:13,523 ERROR send(24) Socket error: /dev/ttyUSB5	1	0

2015-12-20 00:35:27,069 ERROR send(24) Socket error: /dev/ttyUSB0	1	0

2015-12-20 00:36:13,599 ERROR send(24) Socket error: /dev/ttyUSB5	1	1

2015-12-20 00:36:15,366 ERROR send(24) Socket error: /dev/ttyUSB5	1	0

2015-12-20 00:36:27,135 ERROR send(24) Socket error: /dev/ttyUSB0	1	1

2015-12-20 00:36:51,519 ERROR send(24) Socket error: /dev/ttyUSB0	1	0

2015-12-20 00:37:15,433 ERROR send(24) Socket error: /dev/ttyUSB5	1	1

2015-12-20 00:37:17,225 ERROR send(24) Socket error: /dev/ttyUSB5	1	0

2015-12-20 00:37:51,585 ERROR send(24) Socket error: /dev/ttyUSB0	1	1

2015-12-20 00:38:16,027 ERROR send(24) Socket error: /dev/ttyUSB0	1	0

2015-12-20 00:38:17,294 ERROR send(24) Socket error: /dev/ttyUSB5	1	1

2015-12-20 00:38:19,046 ERROR send(24) Socket error: /dev/ttyUSB5	1	0

2015-12-20 00:39:16,093 ERROR send(24) Socket error: /dev/ttyUSB0	1	1

2015-12-20 00:39:19,115 ERROR send(24) Socket error: /dev/ttyUSB5	1	1

2015-12-20 00:39:20,881 ERROR send(24) Socket error: /dev/ttyUSB5	1	0

2015-12-20 00:39:40,472 ERROR send(24) Socket error: /dev/ttyUSB0	1	0

2015-12-20 00:40:20,947 ERROR send(24) Socket error: /dev/ttyUSB5	1	1

2015-12-20 00:40:22,725 ERROR send(24) Socket error: /dev/ttyUSB5	1	0

2015-12-20 00:40:40,538 ERROR send(24) Socket error: /dev/ttyUSB0	1	1

2015-12-20 00:41:04,909 ERROR send(24) Socket error: /dev/ttyUSB0	1	0

2015-12-20 00:41:22,791 ERROR send(24) Socket error: /dev/ttyUSB5	1	1

2015-12-20 00:41:24,536 ERROR send(24) Socket error: /dev/ttyUSB5	1	0

2015-12-20 00:42:04,976 ERROR send(24) Socket error: /dev/ttyUSB0	1	1

2015-12-20 00:42:24,602 ERROR send(24) Socket error: /dev/ttyUSB5	1	1

2015-12-20 00:42:26,351 ERROR send(24) Socket error: /dev/ttyUSB5	1	0

2015-12-20 00:42:29,562 ERROR send(24) Socket error: /dev/ttyUSB0	1	0

2015-12-20 00:43:26,418 ERROR send(24) Socket error: /dev/ttyUSB5	1	1

2015-12-20 00:43:28,191 ERROR send(24) Socket error: /dev/ttyUSB5	1	0

2015-12-20 00:43:29,628 ERROR send(24) Socket error: /dev/ttyUSB0	1	1

2015-12-20 00:44:02,384 ERROR send(24) Socket error: /dev/ttyUSB0	1	0

2015-12-20 00:44:28,257 ERROR send(24) Socket error: /dev/ttyUSB5	1	1

2015-12-20 00:44:30,016 ERROR send(24) Socket error: /dev/ttyUSB5	1	0

2015-12-20 00:45:02,441 ERROR send(24) Socket error: /dev/ttyUSB0	1	1

2015-12-20 00:45:26,822 ERROR send(24) Socket error: /dev/ttyUSB0	1	0

2015-12-20 00:45:30,083 ERROR send(24) Socket error: /dev/ttyUSB5	1	1

2015-12-20 00:45:31,832 ERROR send(24) Socket error: /dev/ttyUSB5	1	0

2015-12-20 00:46:26,889 ERROR send(24) Socket error: /dev/ttyUSB0	1	1

2015-12-20 00:46:31,899 ERROR send(24) Socket error: /dev/ttyUSB5	1	1

2015-12-20 00:46:33,657 ERROR send(24) Socket error: /dev/ttyUSB5	1	0

2015-12-20 00:46:51,278 ERROR send(24) Socket error: /dev/ttyUSB0	1	0

2015-12-20 00:47:33,723 ERROR send(24) Socket error: /dev/ttyUSB5	1	1

2015-12-20 00:47:35,495 ERROR send(24) Socket error: /dev/ttyUSB5	1	0

2015-12-20 00:47:51,345 ERROR send(24) Socket error: /dev/ttyUSB0	1	1

2015-12-20 00:48:15,747 ERROR send(24) Socket error: /dev/ttyUSB0	1	0

2015-12-20 00:48:35,562 ERROR send(24) Socket error: /dev/ttyUSB5	1	1

2015-12-20 00:48:37,308 ERROR send(24) Socket error: /dev/ttyUSB5	1	0

2015-12-20 00:49:15,813 ERROR send(24) Socket error: /dev/ttyUSB0	1	1

2015-12-20 00:49:37,374 ERROR send(24) Socket error: /dev/ttyUSB5	1	1

2015-12-20 00:49:39,123 ERROR send(24) Socket error: /dev/ttyUSB5	1	0

2015-12-20 00:49:40,228 ERROR send(24) Socket error: /dev/ttyUSB0	1	0

2015-12-20 00:50:39,190 ERROR send(24) Socket error: /dev/ttyUSB5	1	1

2015-12-20 00:50:40,257 ERROR send(24) Socket error: /dev/ttyUSB0	1	1

2015-12-20 00:50:40,945 ERROR send(24) Socket error: /dev/ttyUSB5	1	0

2015-12-20 00:51:15,236 ERROR send(24) Socket error: /dev/ttyUSB0	1	0

2015-12-20 00:51:41,011 ERROR send(24) Socket error: /dev/ttyUSB5	1	1

2015-12-20 00:51:42,762 ERROR send(24) Socket error: /dev/ttyUSB5	1	0

2015-12-20 00:52:15,303 ERROR send(24) Socket error: /dev/ttyUSB0	1	1

2015-12-20 00:52:39,675 ERROR send(24) Socket error: /dev/ttyUSB0	1	0

2015-12-20 00:52:42,829 ERROR send(24) Socket error: /dev/ttyUSB5	1	1

2015-12-20 00:52:44,578 ERROR send(24) Socket error: /dev/ttyUSB5	1	0

2015-12-20 00:53:39,741 ERROR send(24) Socket error: /dev/ttyUSB0	1	1

2015-12-20 00:53:44,614 ERROR send(24) Socket error: /dev/ttyUSB5	1	1

