2016-01-04 05:34:12,956 ERROR send(24) Socket error: /dev/ttyUSB5	1	1

2016-01-04 05:34:13,723 ERROR send(24) Socket error: /dev/ttyUSB5	1	0

2016-01-04 05:34:57,559 ERROR send(205) Socket error: /dev/ttyUSB0	1	1

2016-01-04 05:35:04,253 ERROR send(205) Socket error: /dev/ttyUSB0	1	0

2016-01-04 05:35:13,788 ERROR send(24) Socket error: /dev/ttyUSB5	1	1

2016-01-04 05:35:14,552 ERROR send(24) Socket error: /dev/ttyUSB5	1	0

2016-01-04 05:36:04,317 ERROR send(205) Socket error: /dev/ttyUSB0	1	1

2016-01-04 05:36:11,052 ERROR send(205) Socket error: /dev/ttyUSB0	1	0

2016-01-04 05:36:14,615 ERROR send(24) Socket error: /dev/ttyUSB5	1	1

2016-01-04 05:36:15,381 ERROR send(24) Socket error: /dev/ttyUSB5	1	0

2016-01-04 05:37:11,122 ERROR send(205) Socket error: /dev/ttyUSB0	1	1

2016-01-04 05:37:15,445 ERROR send(24) Socket error: /dev/ttyUSB5	1	1

2016-01-04 05:37:16,230 ERROR send(24) Socket error: /dev/ttyUSB5	1	0

2016-01-04 05:37:17,794 ERROR send(205) Socket error: /dev/ttyUSB0	1	0

2016-01-04 05:38:16,295 ERROR send(24) Socket error: /dev/ttyUSB5	1	1

2016-01-04 05:38:17,164 ERROR send(24) Socket error: /dev/ttyUSB5	1	0

2016-01-04 05:38:17,859 ERROR send(205) Socket error: /dev/ttyUSB0	1	1

2016-01-04 05:38:24,525 ERROR send(205) Socket error: /dev/ttyUSB0	1	0

2016-01-04 05:39:17,229 ERROR send(24) Socket error: /dev/ttyUSB5	1	1

2016-01-04 05:39:18,013 ERROR send(24) Socket error: /dev/ttyUSB5	1	0

2016-01-04 05:39:24,589 ERROR send(205) Socket error: /dev/ttyUSB0	1	1

2016-01-04 05:39:31,261 ERROR send(205) Socket error: /dev/ttyUSB0	1	0

2016-01-04 05:40:18,078 ERROR send(24) Socket error: /dev/ttyUSB5	1	1

2016-01-04 05:40:18,865 ERROR send(24) Socket error: /dev/ttyUSB5	1	0

2016-01-04 05:40:31,326 ERROR send(205) Socket error: /dev/ttyUSB0	1	1

2016-01-04 05:40:38,195 ERROR send(205) Socket error: /dev/ttyUSB0	1	0

2016-01-04 05:41:18,931 ERROR send(24) Socket error: /dev/ttyUSB5	1	1

2016-01-04 05:41:19,690 ERROR send(24) Socket error: /dev/ttyUSB5	1	0

2016-01-04 05:41:38,260 ERROR send(205) Socket error: /dev/ttyUSB0	1	1

2016-01-04 05:41:44,955 ERROR send(205) Socket error: /dev/ttyUSB0	1	0

2016-01-04 05:42:19,755 ERROR send(24) Socket error: /dev/ttyUSB5	1	1

2016-01-04 05:42:20,519 ERROR send(24) Socket error: /dev/ttyUSB5	1	0

2016-01-04 05:42:45,019 ERROR send(205) Socket error: /dev/ttyUSB0	1	1

2016-01-04 05:42:51,781 ERROR send(205) Socket error: /dev/ttyUSB0	1	0

2016-01-04 05:43:20,583 ERROR send(24) Socket error: /dev/ttyUSB5	1	1

2016-01-04 05:43:21,346 ERROR send(24) Socket error: /dev/ttyUSB5	1	0

2016-01-04 05:43:51,846 ERROR send(205) Socket error: /dev/ttyUSB0	1	1

2016-01-04 05:43:58,514 ERROR send(205) Socket error: /dev/ttyUSB0	1	0

2016-01-04 05:44:21,411 ERROR send(24) Socket error: /dev/ttyUSB5	1	1

2016-01-04 05:44:22,171 ERROR send(24) Socket error: /dev/ttyUSB5	1	0

2016-01-04 05:44:58,579 ERROR send(205) Socket error: /dev/ttyUSB0	1	1

2016-01-04 05:45:05,307 ERROR send(205) Socket error: /dev/ttyUSB0	1	0

2016-01-04 05:45:22,236 ERROR send(24) Socket error: /dev/ttyUSB5	1	1

2016-01-04 05:45:22,995 ERROR send(24) Socket error: /dev/ttyUSB5	1	0

2016-01-04 05:46:05,353 ERROR send(205) Socket error: /dev/ttyUSB0	1	1

2016-01-04 05:46:12,059 ERROR send(205) Socket error: /dev/ttyUSB0	1	0

2016-01-04 05:46:23,060 ERROR send(24) Socket error: /dev/ttyUSB5	1	1

2016-01-04 05:46:23,820 ERROR send(24) Socket error: /dev/ttyUSB5	1	0

2016-01-04 05:47:12,121 ERROR send(205) Socket error: /dev/ttyUSB0	1	1

2016-01-04 05:47:18,787 ERROR send(205) Socket error: /dev/ttyUSB0	1	0

2016-01-04 05:47:23,885 ERROR send(24) Socket error: /dev/ttyUSB5	1	1

2016-01-04 05:47:24,645 ERROR send(24) Socket error: /dev/ttyUSB5	1	0

2016-01-04 05:48:18,851 ERROR send(205) Socket error: /dev/ttyUSB0	1	1

2016-01-04 05:48:24,709 ERROR send(24) Socket error: /dev/ttyUSB5	1	1

2016-01-04 05:48:25,741 ERROR send(24) Socket error: /dev/ttyUSB5	1	0

2016-01-04 05:48:25,917 ERROR send(205) Socket error: /dev/ttyUSB0	1	0

2016-01-04 05:49:25,816 ERROR send(24) Socket error: /dev/ttyUSB5	1	1

2016-01-04 05:49:25,979 ERROR send(205) Socket error: /dev/ttyUSB0	1	1

2016-01-04 05:49:26,658 ERROR send(24) Socket error: /dev/ttyUSB5	1	0

2016-01-04 05:49:32,671 ERROR send(205) Socket error: /dev/ttyUSB0	1	0

2016-01-04 05:50:26,722 ERROR send(24) Socket error: /dev/ttyUSB5	1	1

2016-01-04 05:50:27,480 ERROR send(24) Socket error: /dev/ttyUSB5	1	0

2016-01-04 05:50:32,735 ERROR send(205) Socket error: /dev/ttyUSB0	1	1

2016-01-04 05:50:39,483 ERROR send(205) Socket error: /dev/ttyUSB0	1	0

2016-01-04 05:51:27,549 ERROR send(24) Socket error: /dev/ttyUSB5	1	1

2016-01-04 05:51:28,306 ERROR send(24) Socket error: /dev/ttyUSB5	1	0

2016-01-04 05:51:39,547 ERROR send(205) Socket error: /dev/ttyUSB0	1	1

2016-01-04 05:51:46,215 ERROR send(205) Socket error: /dev/ttyUSB0	1	0

2016-01-04 05:52:28,370 ERROR send(24) Socket error: /dev/ttyUSB5	1	1

2016-01-04 05:52:29,128 ERROR send(24) Socket error: /dev/ttyUSB5	1	0

2016-01-04 05:52:46,287 ERROR send(205) Socket error: /dev/ttyUSB0	1	1

