2016-01-04 05:15:02,443 ERROR send(205) Socket error: /dev/ttyUSB0	1	0

2016-01-04 05:15:57,985 ERROR send(24) Socket error: /dev/ttyUSB5	1	1

2016-01-04 05:15:58,744 ERROR send(24) Socket error: /dev/ttyUSB5	1	0

2016-01-04 05:16:02,510 ERROR send(205) Socket error: /dev/ttyUSB0	1	1

2016-01-04 05:16:09,179 ERROR send(205) Socket error: /dev/ttyUSB0	1	0

2016-01-04 05:16:58,808 ERROR send(24) Socket error: /dev/ttyUSB5	1	1

2016-01-04 05:16:59,649 ERROR send(24) Socket error: /dev/ttyUSB5	1	0

2016-01-04 05:17:09,243 ERROR send(205) Socket error: /dev/ttyUSB0	1	1

2016-01-04 05:17:15,910 ERROR send(205) Socket error: /dev/ttyUSB0	1	0

2016-01-04 05:17:59,716 ERROR send(24) Socket error: /dev/ttyUSB5	1	1

2016-01-04 05:18:00,481 ERROR send(24) Socket error: /dev/ttyUSB5	1	0

2016-01-04 05:18:15,974 ERROR send(205) Socket error: /dev/ttyUSB0	1	1

2016-01-04 05:18:22,642 ERROR send(205) Socket error: /dev/ttyUSB0	1	0

2016-01-04 05:19:00,546 ERROR send(24) Socket error: /dev/ttyUSB5	1	1

2016-01-04 05:19:01,304 ERROR send(24) Socket error: /dev/ttyUSB5	1	0

2016-01-04 05:19:22,706 ERROR send(205) Socket error: /dev/ttyUSB0	1	1

2016-01-04 05:19:29,380 ERROR send(205) Socket error: /dev/ttyUSB0	1	0

2016-01-04 05:20:01,369 ERROR send(24) Socket error: /dev/ttyUSB5	1	1

2016-01-04 05:20:02,127 ERROR send(24) Socket error: /dev/ttyUSB5	1	0

2016-01-04 05:20:29,421 ERROR send(205) Socket error: /dev/ttyUSB0	1	1

2016-01-04 05:20:36,108 ERROR send(205) Socket error: /dev/ttyUSB0	1	0

2016-01-04 05:21:02,192 ERROR send(24) Socket error: /dev/ttyUSB5	1	1

2016-01-04 05:21:02,951 ERROR send(24) Socket error: /dev/ttyUSB5	1	0

2016-01-04 05:21:36,121 ERROR send(205) Socket error: /dev/ttyUSB0	1	1

2016-01-04 05:21:42,816 ERROR send(205) Socket error: /dev/ttyUSB0	1	0

2016-01-04 05:22:03,016 ERROR send(24) Socket error: /dev/ttyUSB5	1	1

2016-01-04 05:22:03,773 ERROR send(24) Socket error: /dev/ttyUSB5	1	0

2016-01-04 05:22:42,880 ERROR send(205) Socket error: /dev/ttyUSB0	1	1

2016-01-04 05:22:49,747 ERROR send(205) Socket error: /dev/ttyUSB0	1	0

2016-01-04 05:23:03,838 ERROR send(24) Socket error: /dev/ttyUSB5	1	1

2016-01-04 05:23:04,628 ERROR send(24) Socket error: /dev/ttyUSB5	1	0

2016-01-04 05:23:49,812 ERROR send(205) Socket error: /dev/ttyUSB0	1	1

2016-01-04 05:23:56,479 ERROR send(205) Socket error: /dev/ttyUSB0	1	0

2016-01-04 05:24:04,693 ERROR send(24) Socket error: /dev/ttyUSB5	1	1

2016-01-04 05:24:05,482 ERROR send(24) Socket error: /dev/ttyUSB5	1	0

2016-01-04 05:24:56,544 ERROR send(205) Socket error: /dev/ttyUSB0	1	1

2016-01-04 05:25:03,216 ERROR send(205) Socket error: /dev/ttyUSB0	1	0

2016-01-04 05:25:05,547 ERROR send(24) Socket error: /dev/ttyUSB5	1	1

2016-01-04 05:25:06,334 ERROR send(24) Socket error: /dev/ttyUSB5	1	0

2016-01-04 05:26:03,281 ERROR send(205) Socket error: /dev/ttyUSB0	1	1

2016-01-04 05:26:06,379 ERROR send(24) Socket error: /dev/ttyUSB5	1	1

2016-01-04 05:26:07,144 ERROR send(24) Socket error: /dev/ttyUSB5	1	0

2016-01-04 05:26:10,045 ERROR send(205) Socket error: /dev/ttyUSB0	1	0

2016-01-04 05:27:07,156 ERROR send(24) Socket error: /dev/ttyUSB5	1	1

2016-01-04 05:27:07,919 ERROR send(24) Socket error: /dev/ttyUSB5	1	0

2016-01-04 05:27:10,109 ERROR send(205) Socket error: /dev/ttyUSB0	1	1

2016-01-04 05:27:16,800 ERROR send(205) Socket error: /dev/ttyUSB0	1	0

2016-01-04 05:28:07,984 ERROR send(24) Socket error: /dev/ttyUSB5	1	1

2016-01-04 05:28:08,750 ERROR send(24) Socket error: /dev/ttyUSB5	1	0

2016-01-04 05:28:16,864 ERROR send(205) Socket error: /dev/ttyUSB0	1	1

2016-01-04 05:28:23,556 ERROR send(205) Socket error: /dev/ttyUSB0	1	0

2016-01-04 05:29:08,815 ERROR send(24) Socket error: /dev/ttyUSB5	1	1

2016-01-04 05:29:09,577 ERROR send(24) Socket error: /dev/ttyUSB5	1	0

2016-01-04 05:29:23,621 ERROR send(205) Socket error: /dev/ttyUSB0	1	1

2016-01-04 05:29:30,340 ERROR send(205) Socket error: /dev/ttyUSB0	1	0

2016-01-04 05:30:09,642 ERROR send(24) Socket error: /dev/ttyUSB5	1	1

2016-01-04 05:30:10,401 ERROR send(24) Socket error: /dev/ttyUSB5	1	0

2016-01-04 05:30:30,404 ERROR send(205) Socket error: /dev/ttyUSB0	1	1

2016-01-04 05:30:37,255 ERROR send(205) Socket error: /dev/ttyUSB0	1	0

2016-01-04 05:31:10,466 ERROR send(24) Socket error: /dev/ttyUSB5	1	1

2016-01-04 05:31:11,233 ERROR send(24) Socket error: /dev/ttyUSB5	1	0

2016-01-04 05:31:37,320 ERROR send(205) Socket error: /dev/ttyUSB0	1	1

2016-01-04 05:31:43,993 ERROR send(205) Socket error: /dev/ttyUSB0	1	0

2016-01-04 05:32:11,298 ERROR send(24) Socket error: /dev/ttyUSB5	1	1

2016-01-04 05:32:12,061 ERROR send(24) Socket error: /dev/ttyUSB5	1	0

2016-01-04 05:32:44,058 ERROR send(205) Socket error: /dev/ttyUSB0	1	1

2016-01-04 05:32:50,735 ERROR send(205) Socket error: /dev/ttyUSB0	1	0

2016-01-04 05:33:12,126 ERROR send(24) Socket error: /dev/ttyUSB5	1	1

2016-01-04 05:33:12,891 ERROR send(24) Socket error: /dev/ttyUSB5	1	0

2016-01-04 05:33:50,800 ERROR send(205) Socket error: /dev/ttyUSB0	1	1

2016-01-04 05:33:57,494 ERROR send(205) Socket error: /dev/ttyUSB0	1	0

