2016-01-04 05:40:57,441 ERROR send(24) Socket error: /dev/ttyUSB2	1	1

2016-01-04 05:40:59,194 ERROR send(24) Socket error: /dev/ttyUSB2	1	0

2016-01-04 05:41:59,259 ERROR send(24) Socket error: /dev/ttyUSB2	1	1

2016-01-04 05:42:00,986 ERROR send(24) Socket error: /dev/ttyUSB2	1	0

2016-01-04 05:43:01,050 ERROR send(24) Socket error: /dev/ttyUSB2	1	1

2016-01-04 05:43:02,770 ERROR send(24) Socket error: /dev/ttyUSB2	1	0

2016-01-04 05:44:02,835 ERROR send(24) Socket error: /dev/ttyUSB2	1	1

2016-01-04 05:44:04,555 ERROR send(24) Socket error: /dev/ttyUSB2	1	0

2016-01-04 05:45:04,619 ERROR send(24) Socket error: /dev/ttyUSB2	1	1

2016-01-04 05:45:06,441 ERROR send(24) Socket error: /dev/ttyUSB2	1	0

2016-01-04 05:46:06,508 ERROR send(24) Socket error: /dev/ttyUSB2	1	1

2016-01-04 05:46:08,234 ERROR send(24) Socket error: /dev/ttyUSB2	1	0

2016-01-04 05:47:08,298 ERROR send(24) Socket error: /dev/ttyUSB2	1	1

2016-01-04 05:47:10,030 ERROR send(24) Socket error: /dev/ttyUSB2	1	0

