2016-01-04 04:26:48,278 ERROR send(24) Socket error: /dev/ttyUSB2	1	1

2016-01-04 04:26:50,025 ERROR send(24) Socket error: /dev/ttyUSB2	1	0

2016-01-04 04:27:50,090 ERROR send(24) Socket error: /dev/ttyUSB2	1	1

2016-01-04 04:27:51,817 ERROR send(24) Socket error: /dev/ttyUSB2	1	0

2016-01-04 04:28:51,882 ERROR send(24) Socket error: /dev/ttyUSB2	1	1

2016-01-04 04:28:53,611 ERROR send(24) Socket error: /dev/ttyUSB2	1	0

2016-01-04 04:29:53,676 ERROR send(24) Socket error: /dev/ttyUSB2	1	1

2016-01-04 04:29:55,419 ERROR send(24) Socket error: /dev/ttyUSB2	1	0

2016-01-04 04:30:55,484 ERROR send(24) Socket error: /dev/ttyUSB2	1	1

2016-01-04 04:30:57,209 ERROR send(24) Socket error: /dev/ttyUSB2	1	0

2016-01-04 04:31:57,273 ERROR send(24) Socket error: /dev/ttyUSB2	1	1

2016-01-04 04:31:59,000 ERROR send(24) Socket error: /dev/ttyUSB2	1	0

2016-01-04 04:32:59,064 ERROR send(24) Socket error: /dev/ttyUSB2	1	1

2016-01-04 04:33:00,804 ERROR send(24) Socket error: /dev/ttyUSB2	1	0

2016-01-04 04:34:00,869 ERROR send(24) Socket error: /dev/ttyUSB2	1	1

2016-01-04 04:34:02,593 ERROR send(24) Socket error: /dev/ttyUSB2	1	0

2016-01-04 04:35:02,658 ERROR send(24) Socket error: /dev/ttyUSB2	1	1

2016-01-04 04:35:04,383 ERROR send(24) Socket error: /dev/ttyUSB2	1	0

2016-01-04 04:36:04,447 ERROR send(24) Socket error: /dev/ttyUSB2	1	1

2016-01-04 04:36:06,174 ERROR send(24) Socket error: /dev/ttyUSB2	1	0

2016-01-04 04:37:06,239 ERROR send(24) Socket error: /dev/ttyUSB2	1	1

2016-01-04 04:37:07,958 ERROR send(24) Socket error: /dev/ttyUSB2	1	0

2016-01-04 04:38:08,023 ERROR send(24) Socket error: /dev/ttyUSB2	1	1

2016-01-04 04:38:09,743 ERROR send(24) Socket error: /dev/ttyUSB2	1	0

2016-01-04 04:39:09,807 ERROR send(24) Socket error: /dev/ttyUSB2	1	1

2016-01-04 04:39:11,526 ERROR send(24) Socket error: /dev/ttyUSB2	1	0

2016-01-04 04:40:11,589 ERROR send(24) Socket error: /dev/ttyUSB2	1	1

2016-01-04 04:40:13,310 ERROR send(24) Socket error: /dev/ttyUSB2	1	0

2016-01-04 04:41:13,374 ERROR send(24) Socket error: /dev/ttyUSB2	1	1

2016-01-04 04:41:15,093 ERROR send(24) Socket error: /dev/ttyUSB2	1	0

2016-01-04 04:42:15,157 ERROR send(24) Socket error: /dev/ttyUSB2	1	1

2016-01-04 04:42:16,885 ERROR send(24) Socket error: /dev/ttyUSB2	1	0

2016-01-04 04:43:16,949 ERROR send(24) Socket error: /dev/ttyUSB2	1	1

2016-01-04 04:43:18,691 ERROR send(24) Socket error: /dev/ttyUSB2	1	0

2016-01-04 04:44:18,756 ERROR send(24) Socket error: /dev/ttyUSB2	1	1

2016-01-04 04:44:20,475 ERROR send(24) Socket error: /dev/ttyUSB2	1	0

2016-01-04 04:45:20,540 ERROR send(24) Socket error: /dev/ttyUSB2	1	1

2016-01-04 04:45:22,265 ERROR send(24) Socket error: /dev/ttyUSB2	1	0

2016-01-04 04:46:22,327 ERROR send(24) Socket error: /dev/ttyUSB2	1	1

2016-01-04 04:46:24,047 ERROR send(24) Socket error: /dev/ttyUSB2	1	0

2016-01-04 04:47:24,111 ERROR send(24) Socket error: /dev/ttyUSB2	1	1

2016-01-04 04:47:25,833 ERROR send(24) Socket error: /dev/ttyUSB2	1	0

2016-01-04 04:48:25,897 ERROR send(24) Socket error: /dev/ttyUSB2	1	1

2016-01-04 04:48:27,617 ERROR send(24) Socket error: /dev/ttyUSB2	1	0

2016-01-04 04:49:27,686 ERROR send(24) Socket error: /dev/ttyUSB2	1	1

2016-01-04 04:49:29,515 ERROR send(24) Socket error: /dev/ttyUSB2	1	0

2016-01-04 04:50:29,579 ERROR send(24) Socket error: /dev/ttyUSB2	1	1

2016-01-04 04:50:31,307 ERROR send(24) Socket error: /dev/ttyUSB2	1	0

2016-01-04 04:51:31,372 ERROR send(24) Socket error: /dev/ttyUSB2	1	1

2016-01-04 04:51:33,099 ERROR send(24) Socket error: /dev/ttyUSB2	1	0

2016-01-04 04:52:33,164 ERROR send(24) Socket error: /dev/ttyUSB2	1	1

2016-01-04 04:52:34,903 ERROR send(24) Socket error: /dev/ttyUSB2	1	0

2016-01-04 04:53:34,966 ERROR send(24) Socket error: /dev/ttyUSB2	1	1

2016-01-04 04:53:36,687 ERROR send(24) Socket error: /dev/ttyUSB2	1	0

2016-01-04 04:54:36,723 ERROR send(24) Socket error: /dev/ttyUSB2	1	1

2016-01-04 04:54:38,449 ERROR send(24) Socket error: /dev/ttyUSB2	1	0

2016-01-04 04:55:38,513 ERROR send(24) Socket error: /dev/ttyUSB2	1	1

2016-01-04 04:55:40,255 ERROR send(24) Socket error: /dev/ttyUSB2	1	0

2016-01-04 04:56:40,319 ERROR send(24) Socket error: /dev/ttyUSB2	1	1

2016-01-04 04:56:42,046 ERROR send(24) Socket error: /dev/ttyUSB2	1	0

2016-01-04 04:57:42,110 ERROR send(24) Socket error: /dev/ttyUSB2	1	1

2016-01-04 04:57:43,837 ERROR send(24) Socket error: /dev/ttyUSB2	1	0

2016-01-04 04:58:43,902 ERROR send(24) Socket error: /dev/ttyUSB2	1	1

2016-01-04 04:58:45,642 ERROR send(24) Socket error: /dev/ttyUSB2	1	0

2016-01-04 04:59:45,706 ERROR send(24) Socket error: /dev/ttyUSB2	1	1

2016-01-04 04:59:47,428 ERROR send(24) Socket error: /dev/ttyUSB2	1	0

2016-01-04 05:00:47,492 ERROR send(24) Socket error: /dev/ttyUSB2	1	1

2016-01-04 05:00:49,306 ERROR send(24) Socket error: /dev/ttyUSB2	1	0

2016-01-04 05:01:49,362 ERROR send(24) Socket error: /dev/ttyUSB2	1	1

2016-01-04 05:01:51,130 ERROR send(24) Socket error: /dev/ttyUSB2	1	0

2016-01-04 05:02:51,197 ERROR send(24) Socket error: /dev/ttyUSB2	1	1

2016-01-04 05:02:52,924 ERROR send(24) Socket error: /dev/ttyUSB2	1	0

