2016-01-04 05:03:52,941 ERROR send(24) Socket error: /dev/ttyUSB2	1	1

2016-01-04 05:03:54,669 ERROR send(24) Socket error: /dev/ttyUSB2	1	0

2016-01-04 05:04:54,733 ERROR send(24) Socket error: /dev/ttyUSB2	1	1

2016-01-04 05:04:56,452 ERROR send(24) Socket error: /dev/ttyUSB2	1	0

2016-01-04 05:05:56,516 ERROR send(24) Socket error: /dev/ttyUSB2	1	1

2016-01-04 05:05:58,244 ERROR send(24) Socket error: /dev/ttyUSB2	1	0

2016-01-04 05:06:58,309 ERROR send(24) Socket error: /dev/ttyUSB2	1	1

2016-01-04 05:07:00,033 ERROR send(24) Socket error: /dev/ttyUSB2	1	0

2016-01-04 05:08:00,098 ERROR send(24) Socket error: /dev/ttyUSB2	1	1

2016-01-04 05:08:01,818 ERROR send(24) Socket error: /dev/ttyUSB2	1	0

2016-01-04 05:09:01,877 ERROR send(24) Socket error: /dev/ttyUSB2	1	1

2016-01-04 05:09:03,598 ERROR send(24) Socket error: /dev/ttyUSB2	1	0

2016-01-04 05:10:03,663 ERROR send(24) Socket error: /dev/ttyUSB2	1	1

2016-01-04 05:10:05,384 ERROR send(24) Socket error: /dev/ttyUSB2	1	0

2016-01-04 05:11:05,448 ERROR send(24) Socket error: /dev/ttyUSB2	1	1

2016-01-04 05:11:07,169 ERROR send(24) Socket error: /dev/ttyUSB2	1	0

2016-01-04 05:12:07,233 ERROR send(24) Socket error: /dev/ttyUSB2	1	1

2016-01-04 05:12:09,083 ERROR send(24) Socket error: /dev/ttyUSB2	1	0

2016-01-04 05:13:09,150 ERROR send(24) Socket error: /dev/ttyUSB2	1	1

2016-01-04 05:13:10,878 ERROR send(24) Socket error: /dev/ttyUSB2	1	0

2016-01-04 05:14:10,943 ERROR send(24) Socket error: /dev/ttyUSB2	1	1

2016-01-04 05:14:12,668 ERROR send(24) Socket error: /dev/ttyUSB2	1	0

2016-01-04 05:15:12,737 ERROR send(24) Socket error: /dev/ttyUSB2	1	1

2016-01-04 05:15:14,466 ERROR send(24) Socket error: /dev/ttyUSB2	1	0

2016-01-04 05:16:14,531 ERROR send(24) Socket error: /dev/ttyUSB2	1	1

2016-01-04 05:16:16,251 ERROR send(24) Socket error: /dev/ttyUSB2	1	0

2016-01-04 05:17:16,316 ERROR send(24) Socket error: /dev/ttyUSB2	1	1

2016-01-04 05:17:18,035 ERROR send(24) Socket error: /dev/ttyUSB2	1	0

2016-01-04 05:18:18,100 ERROR send(24) Socket error: /dev/ttyUSB2	1	1

2016-01-04 05:18:19,821 ERROR send(24) Socket error: /dev/ttyUSB2	1	0

2016-01-04 05:19:19,885 ERROR send(24) Socket error: /dev/ttyUSB2	1	1

2016-01-04 05:19:21,610 ERROR send(24) Socket error: /dev/ttyUSB2	1	0

2016-01-04 05:20:21,674 ERROR send(24) Socket error: /dev/ttyUSB2	1	1

2016-01-04 05:20:23,394 ERROR send(24) Socket error: /dev/ttyUSB2	1	0

2016-01-04 05:21:23,459 ERROR send(24) Socket error: /dev/ttyUSB2	1	1

2016-01-04 05:21:25,185 ERROR send(24) Socket error: /dev/ttyUSB2	1	0

2016-01-04 05:22:25,250 ERROR send(24) Socket error: /dev/ttyUSB2	1	1

2016-01-04 05:22:26,971 ERROR send(24) Socket error: /dev/ttyUSB2	1	0

2016-01-04 05:23:27,035 ERROR send(24) Socket error: /dev/ttyUSB2	1	1

2016-01-04 05:23:28,772 ERROR send(24) Socket error: /dev/ttyUSB2	1	0

2016-01-04 05:24:28,837 ERROR send(24) Socket error: /dev/ttyUSB2	1	1

2016-01-04 05:24:30,558 ERROR send(24) Socket error: /dev/ttyUSB2	1	0

2016-01-04 05:25:30,623 ERROR send(24) Socket error: /dev/ttyUSB2	1	1

2016-01-04 05:25:32,348 ERROR send(24) Socket error: /dev/ttyUSB2	1	0

2016-01-04 05:26:32,412 ERROR send(24) Socket error: /dev/ttyUSB2	1	1

2016-01-04 05:26:34,133 ERROR send(24) Socket error: /dev/ttyUSB2	1	0

2016-01-04 05:27:34,198 ERROR send(24) Socket error: /dev/ttyUSB2	1	1

2016-01-04 05:27:35,995 ERROR send(24) Socket error: /dev/ttyUSB2	1	0

2016-01-04 05:28:36,060 ERROR send(24) Socket error: /dev/ttyUSB2	1	1

2016-01-04 05:28:37,784 ERROR send(24) Socket error: /dev/ttyUSB2	1	0

2016-01-04 05:29:37,849 ERROR send(24) Socket error: /dev/ttyUSB2	1	1

2016-01-04 05:29:39,568 ERROR send(24) Socket error: /dev/ttyUSB2	1	0

2016-01-04 05:30:39,632 ERROR send(24) Socket error: /dev/ttyUSB2	1	1

2016-01-04 05:30:41,357 ERROR send(24) Socket error: /dev/ttyUSB2	1	0

2016-01-04 05:31:41,362 ERROR send(24) Socket error: /dev/ttyUSB2	1	1

2016-01-04 05:31:43,081 ERROR send(24) Socket error: /dev/ttyUSB2	1	0

2016-01-04 05:32:43,107 ERROR send(24) Socket error: /dev/ttyUSB2	1	1

2016-01-04 05:32:44,827 ERROR send(24) Socket error: /dev/ttyUSB2	1	0

2016-01-04 05:33:44,892 ERROR send(24) Socket error: /dev/ttyUSB2	1	1

2016-01-04 05:33:46,614 ERROR send(24) Socket error: /dev/ttyUSB2	1	0

2016-01-04 05:34:46,678 ERROR send(24) Socket error: /dev/ttyUSB2	1	1

2016-01-04 05:34:48,424 ERROR send(24) Socket error: /dev/ttyUSB2	1	0

2016-01-04 05:35:48,489 ERROR send(24) Socket error: /dev/ttyUSB2	1	1

2016-01-04 05:35:50,214 ERROR send(24) Socket error: /dev/ttyUSB2	1	0

2016-01-04 05:36:50,279 ERROR send(24) Socket error: /dev/ttyUSB2	1	1

2016-01-04 05:36:52,006 ERROR send(24) Socket error: /dev/ttyUSB2	1	0

2016-01-04 05:37:52,070 ERROR send(24) Socket error: /dev/ttyUSB2	1	1

2016-01-04 05:37:53,790 ERROR send(24) Socket error: /dev/ttyUSB2	1	0

2016-01-04 05:38:53,855 ERROR send(24) Socket error: /dev/ttyUSB2	1	1

2016-01-04 05:38:55,584 ERROR send(24) Socket error: /dev/ttyUSB2	1	0

2016-01-04 05:39:55,651 ERROR send(24) Socket error: /dev/ttyUSB2	1	1

2016-01-04 05:39:57,377 ERROR send(24) Socket error: /dev/ttyUSB2	1	0

