2016-01-04 05:50:27,480 ERROR send(24) Socket error: /dev/ttyUSB5	1	0

2016-01-04 05:50:32,735 ERROR send(205) Socket error: /dev/ttyUSB0	1	1

2016-01-04 05:50:39,483 ERROR send(205) Socket error: /dev/ttyUSB0	1	0

2016-01-04 05:51:27,549 ERROR send(24) Socket error: /dev/ttyUSB5	1	1

2016-01-04 05:51:28,306 ERROR send(24) Socket error: /dev/ttyUSB5	1	0

2016-01-04 05:51:39,547 ERROR send(205) Socket error: /dev/ttyUSB0	1	1

2016-01-04 05:51:46,215 ERROR send(205) Socket error: /dev/ttyUSB0	1	0

2016-01-04 05:52:28,370 ERROR send(24) Socket error: /dev/ttyUSB5	1	1

2016-01-04 05:52:29,128 ERROR send(24) Socket error: /dev/ttyUSB5	1	0

2016-01-04 05:52:46,287 ERROR send(205) Socket error: /dev/ttyUSB0	1	1

2016-01-04 05:52:52,962 ERROR send(205) Socket error: /dev/ttyUSB0	1	0

2016-01-04 05:53:29,194 ERROR send(24) Socket error: /dev/ttyUSB5	1	1

2016-01-04 05:53:29,950 ERROR send(24) Socket error: /dev/ttyUSB5	1	0

2016-01-04 05:53:53,029 ERROR send(205) Socket error: /dev/ttyUSB0	1	1

2016-01-04 05:53:59,697 ERROR send(205) Socket error: /dev/ttyUSB0	1	0

2016-01-04 05:54:30,015 ERROR send(24) Socket error: /dev/ttyUSB5	1	1

2016-01-04 05:54:30,863 ERROR send(24) Socket error: /dev/ttyUSB5	1	0

2016-01-04 05:54:59,761 ERROR send(205) Socket error: /dev/ttyUSB0	1	1

2016-01-04 05:55:06,459 ERROR send(205) Socket error: /dev/ttyUSB0	1	0

2016-01-04 05:55:30,919 ERROR send(24) Socket error: /dev/ttyUSB5	1	1

2016-01-04 05:55:31,679 ERROR send(24) Socket error: /dev/ttyUSB5	1	0

2016-01-04 05:56:06,524 ERROR send(205) Socket error: /dev/ttyUSB0	1	1

2016-01-04 05:56:13,214 ERROR send(205) Socket error: /dev/ttyUSB0	1	0

2016-01-04 05:56:31,743 ERROR send(24) Socket error: /dev/ttyUSB5	1	1

2016-01-04 05:56:32,501 ERROR send(24) Socket error: /dev/ttyUSB5	1	0

2016-01-04 05:57:13,278 ERROR send(205) Socket error: /dev/ttyUSB0	1	1

2016-01-04 05:57:20,022 ERROR send(205) Socket error: /dev/ttyUSB0	1	0

2016-01-04 05:57:32,566 ERROR send(24) Socket error: /dev/ttyUSB5	1	1

2016-01-04 05:57:33,325 ERROR send(24) Socket error: /dev/ttyUSB5	1	0

2016-01-04 05:58:20,088 ERROR send(205) Socket error: /dev/ttyUSB0	1	1

2016-01-04 05:58:26,976 ERROR send(205) Socket error: /dev/ttyUSB0	1	0

2016-01-04 05:58:33,390 ERROR send(24) Socket error: /dev/ttyUSB5	1	1

2016-01-04 05:58:34,175 ERROR send(24) Socket error: /dev/ttyUSB5	1	0

2016-01-04 05:59:27,041 ERROR send(205) Socket error: /dev/ttyUSB0	1	1

2016-01-04 05:59:33,704 ERROR send(205) Socket error: /dev/ttyUSB0	1	0

2016-01-04 05:59:34,240 ERROR send(24) Socket error: /dev/ttyUSB5	1	1

2016-01-04 05:59:35,034 ERROR send(24) Socket error: /dev/ttyUSB5	1	0

2016-01-04 06:00:33,769 ERROR send(205) Socket error: /dev/ttyUSB0	1	1

2016-01-04 06:00:35,099 ERROR send(24) Socket error: /dev/ttyUSB5	1	1

2016-01-04 06:00:35,874 ERROR send(24) Socket error: /dev/ttyUSB5	1	0

2016-01-04 06:00:40,528 ERROR send(205) Socket error: /dev/ttyUSB0	1	0

2016-01-04 06:01:35,951 ERROR send(24) Socket error: /dev/ttyUSB5	1	1

2016-01-04 06:01:36,714 ERROR send(24) Socket error: /dev/ttyUSB5	1	0

2016-01-04 06:01:40,593 ERROR send(205) Socket error: /dev/ttyUSB0	1	1

2016-01-04 06:01:47,285 ERROR send(205) Socket error: /dev/ttyUSB0	1	0

2016-01-04 06:02:36,779 ERROR send(24) Socket error: /dev/ttyUSB5	1	1

2016-01-04 06:02:37,542 ERROR send(24) Socket error: /dev/ttyUSB5	1	0

2016-01-04 06:02:47,349 ERROR send(205) Socket error: /dev/ttyUSB0	1	1

2016-01-04 06:02:54,046 ERROR send(205) Socket error: /dev/ttyUSB0	1	0

2016-01-04 06:03:37,607 ERROR send(24) Socket error: /dev/ttyUSB5	1	1

2016-01-04 06:03:38,365 ERROR send(24) Socket error: /dev/ttyUSB5	1	0

2016-01-04 06:03:54,111 ERROR send(205) Socket error: /dev/ttyUSB0	1	1

2016-01-04 06:04:00,850 ERROR send(205) Socket error: /dev/ttyUSB0	1	0

2016-01-04 06:04:38,430 ERROR send(24) Socket error: /dev/ttyUSB5	1	1

2016-01-04 06:04:39,207 ERROR send(24) Socket error: /dev/ttyUSB5	1	0

2016-01-04 06:05:00,915 ERROR send(205) Socket error: /dev/ttyUSB0	1	1

2016-01-04 06:05:07,599 ERROR send(205) Socket error: /dev/ttyUSB0	1	0

2016-01-04 06:05:39,272 ERROR send(24) Socket error: /dev/ttyUSB5	1	1

2016-01-04 06:05:40,034 ERROR send(24) Socket error: /dev/ttyUSB5	1	0

2016-01-04 06:06:07,664 ERROR send(205) Socket error: /dev/ttyUSB0	1	1

2016-01-04 06:06:14,330 ERROR send(205) Socket error: /dev/ttyUSB0	1	0

2016-01-04 06:06:40,099 ERROR send(24) Socket error: /dev/ttyUSB5	1	1

2016-01-04 06:06:40,861 ERROR send(24) Socket error: /dev/ttyUSB5	1	0

2016-01-04 06:07:14,395 ERROR send(205) Socket error: /dev/ttyUSB0	1	1

2016-01-04 06:07:21,123 ERROR send(205) Socket error: /dev/ttyUSB0	1	0

2016-01-04 06:07:40,926 ERROR send(24) Socket error: /dev/ttyUSB5	1	1

2016-01-04 06:07:41,695 ERROR send(24) Socket error: /dev/ttyUSB5	1	0

2016-01-04 06:08:21,187 ERROR send(205) Socket error: /dev/ttyUSB0	1	1

2016-01-04 06:08:28,049 ERROR send(205) Socket error: /dev/ttyUSB0	1	0

2016-01-04 06:08:41,760 ERROR send(24) Socket error: /dev/ttyUSB5	1	1

2016-01-04 06:08:42,590 ERROR send(24) Socket error: /dev/ttyUSB5	1	0

