2015-10-02 10:57:56,021 ERROR handleValue(118) Can't handle value(alarm, Low Fuel Level Shutdown 'OCC':15 inactive 2013-10-16 00:36:41|High Fuel Level Warning 'OCC':99 Present 2015-08-14 20:08:32|Low Fuel Level Warning 'OCC':99 inactive 2013-10-16 00:36:41|Low Engine Oil Pressure Shutdown 'OCC':3 inactive 2015-08-15 01:49:33|Low Engine Oil Pressure Warning 'OCC':99 inactive 2015-08-24 22:07:48|Low Engine Coolant Temperature Warning 'OCC':99 inactive 2015-10-16 09:08:07|Low Battery Charging System Voltage Warning 'OCC':43 inactive 2015-08-22 18:51:00|High Battery Voltage Warning 'OCC':10 inactive 2015-08-24 18:20:49|Low Battery Voltage Warning 'OCC':8 inactive 2013-10-15 07:05:52|Engine Under Speed Shutdown 'OCC':1 inactive 2015-08-14 17:47:21|Engine Speed Sensor Open 'OCC':9 inactive 2013-10-16 00:19:51|Engine Under Speed Warning 'OCC':1 inactive 2015-08-14 17:47:20|Unknown alarm 'OCC':18 inactive 2013-10-16 00:09:45|Unknown alarm 'OCC':16 inactive 2013-10-16 00:09:45|Emergency Stop Switch Activated 'OCC':22 inactive 2015-08-14 19:58:06|Unknown alarm 'OCC':4 inactive 2014-07-13 00:18:45|Unexpected Engine Shutdown 'OCC':2 inactive 2015-08-14 20:14:58|Generating Set Under Frequency Shutdown 'OCC':5 inactive 2013-10-15 23:52:18|Generating Set Over Frequency Warning 'OCC':99 inactive 2015-11-14 21:52:20|Generating Set Under Frequency Warning 'OCC':5 inactive 2013-10-15 23:52:18)

2015-10-02 10:57:56,064 ERROR send(24) Socket error: /dev/ttyUSB1	1	0

2015-10-02 10:57:58,982 ERROR send(24) Socket error: /dev/ttyUSB5	1	1

2015-10-02 10:57:59,638 ERROR send(24) Socket error: /dev/ttyUSB5	1	0

2015-10-02 10:58:37,165 ERROR send(205) Socket error: /dev/ttyUSB0	1	1

2015-10-02 10:58:43,954 ERROR send(205) Socket error: /dev/ttyUSB0	1	0

2015-10-02 10:58:56,141 ERROR send(24) Socket error: /dev/ttyUSB1	1	1

2015-10-02 10:58:59,703 ERROR send(24) Socket error: /dev/ttyUSB5	1	1

2015-10-02 10:59:00,443 ERROR send(24) Socket error: /dev/ttyUSB5	1	0

2015-10-02 10:59:33,879 ERROR handleValue(118) Can't handle value(alarm, Low Fuel Level Shutdown 'OCC':15 inactive 2013-10-16 00:36:41|High Fuel Level Warning 'OCC':99 Present 2015-08-14 20:08:32|Low Fuel Level Warning 'OCC':99 inactive 2013-10-16 00:36:41|Low Engine Oil Pressure Shutdown 'OCC':3 inactive 2015-08-15 01:49:33|Low Engine Oil Pressure Warning 'OCC':99 inactive 2015-08-24 22:07:48|Low Engine Coolant Temperature Warning 'OCC':99 inactive 2015-10-16 09:08:07|Low Battery Charging System Voltage Warning 'OCC':43 inactive 2015-08-22 18:51:00|High Battery Voltage Warning 'OCC':10 inactive 2015-08-24 18:20:49|Low Battery Voltage Warning 'OCC':8 inactive 2013-10-15 07:05:52|Engine Under Speed Shutdown 'OCC':1 inactive 2015-08-14 17:47:21|Engine Speed Sensor Open 'OCC':9 inactive 2013-10-16 00:19:51|Engine Under Speed Warning 'OCC':1 inactive 2015-08-14 17:47:20|Unknown alarm 'OCC':18 inactive 2013-10-16 00:09:45|Unknown alarm 'OCC':16 inactive 2013-10-16 00:09:45|Emergency Stop Switch Activated 'OCC':22 inactive 2015-08-14 19:58:06|Unknown alarm 'OCC':4 inactive 2014-07-13 00:18:45|Unexpected Engine Shutdown 'OCC':2 inactive 2015-08-14 20:14:58|Generating Set Under Frequency Shutdown 'OCC':5 inactive 2013-10-15 23:52:18|Generating Set Over Frequency Warning 'OCC':99 inactive 2015-11-14 21:52:20|Generating Set Under Frequency Warning 'OCC':5 inactive 2013-10-15 23:52:18)

2015-10-02 10:59:33,894 ERROR send(24) Socket error: /dev/ttyUSB1	1	0

2015-10-02 10:59:44,019 ERROR send(205) Socket error: /dev/ttyUSB0	1	1

2015-10-02 10:59:50,732 ERROR send(205) Socket error: /dev/ttyUSB0	1	0

2015-10-02 11:00:00,508 ERROR send(24) Socket error: /dev/ttyUSB5	1	1

2015-10-02 11:00:01,169 ERROR send(24) Socket error: /dev/ttyUSB5	1	0

2015-10-02 11:00:33,967 ERROR send(24) Socket error: /dev/ttyUSB1	1	1

2015-10-02 11:00:50,797 ERROR send(205) Socket error: /dev/ttyUSB0	1	1

2015-10-02 11:00:57,505 ERROR send(205) Socket error: /dev/ttyUSB0	1	0

2015-10-02 11:01:01,234 ERROR send(24) Socket error: /dev/ttyUSB5	1	1

2015-10-02 11:01:01,897 ERROR send(24) Socket error: /dev/ttyUSB5	1	0

