2016-01-04 05:20:24,904 ERROR send(24) Socket error: /dev/ttyUSB0	1	1

2016-01-04 05:20:26,306 ERROR send(24) Socket error: /dev/ttyUSB0	1	0

2016-01-04 05:21:22,562 ERROR send(24) Socket error: /dev/ttyUSB6	1	1

2016-01-04 05:21:22,771 ERROR send(24) Socket error: /dev/ttyUSB6	1	0

2016-01-04 05:21:26,370 ERROR send(24) Socket error: /dev/ttyUSB0	1	1

2016-01-04 05:21:27,803 ERROR send(24) Socket error: /dev/ttyUSB0	1	0

2016-01-04 05:21:57,829 ERROR send(24) Socket error: /dev/ttyUSB5	1	1

2016-01-04 05:21:59,572 ERROR send(24) Socket error: /dev/ttyUSB5	1	0

2016-01-04 05:22:22,837 ERROR send(24) Socket error: /dev/ttyUSB6	1	1

2016-01-04 05:22:23,049 ERROR send(24) Socket error: /dev/ttyUSB6	1	0

2016-01-04 05:22:27,811 ERROR send(24) Socket error: /dev/ttyUSB0	1	1

2016-01-04 05:22:29,223 ERROR send(24) Socket error: /dev/ttyUSB0	1	0

2016-01-04 05:23:23,114 ERROR send(24) Socket error: /dev/ttyUSB6	1	1

2016-01-04 05:23:23,350 ERROR send(24) Socket error: /dev/ttyUSB6	1	0

2016-01-04 05:23:29,288 ERROR send(24) Socket error: /dev/ttyUSB0	1	1

2016-01-04 05:23:30,642 ERROR send(24) Socket error: /dev/ttyUSB0	1	0

2016-01-04 05:24:23,415 ERROR send(24) Socket error: /dev/ttyUSB6	1	1

2016-01-04 05:24:23,628 ERROR send(24) Socket error: /dev/ttyUSB6	1	0

2016-01-04 05:24:30,708 ERROR send(24) Socket error: /dev/ttyUSB0	1	1

2016-01-04 05:24:32,088 ERROR send(24) Socket error: /dev/ttyUSB0	1	0

2016-01-04 05:24:59,677 ERROR send(24) Socket error: /dev/ttyUSB5	1	1

2016-01-04 05:25:01,509 ERROR send(24) Socket error: /dev/ttyUSB5	1	0

2016-01-04 05:25:23,695 ERROR send(24) Socket error: /dev/ttyUSB6	1	1

2016-01-04 05:25:23,902 ERROR send(24) Socket error: /dev/ttyUSB6	1	0

2016-01-04 05:25:32,154 ERROR send(24) Socket error: /dev/ttyUSB0	1	1

2016-01-04 05:25:33,603 ERROR send(24) Socket error: /dev/ttyUSB0	1	0

2016-01-04 05:26:23,968 ERROR send(24) Socket error: /dev/ttyUSB6	1	1

2016-01-04 05:26:24,217 ERROR send(24) Socket error: /dev/ttyUSB6	1	0

2016-01-04 05:26:33,668 ERROR send(24) Socket error: /dev/ttyUSB0	1	1

2016-01-04 05:26:35,286 ERROR send(24) Socket error: /dev/ttyUSB0	1	0

2016-01-04 05:27:24,282 ERROR send(24) Socket error: /dev/ttyUSB6	1	1

2016-01-04 05:27:24,492 ERROR send(24) Socket error: /dev/ttyUSB6	1	0

2016-01-04 05:27:35,351 ERROR send(24) Socket error: /dev/ttyUSB0	1	1

2016-01-04 05:27:36,858 ERROR send(24) Socket error: /dev/ttyUSB0	1	0

2016-01-04 05:28:01,620 ERROR send(24) Socket error: /dev/ttyUSB5	1	1

2016-01-04 05:28:03,358 ERROR send(24) Socket error: /dev/ttyUSB5	1	0

2016-01-04 05:28:24,557 ERROR send(24) Socket error: /dev/ttyUSB6	1	1

2016-01-04 05:28:24,765 ERROR send(24) Socket error: /dev/ttyUSB6	1	0

2016-01-04 05:28:36,923 ERROR send(24) Socket error: /dev/ttyUSB0	1	1

2016-01-04 05:28:38,458 ERROR send(24) Socket error: /dev/ttyUSB0	1	0

2016-01-04 05:29:24,776 ERROR send(24) Socket error: /dev/ttyUSB6	1	1

2016-01-04 05:29:24,983 ERROR send(24) Socket error: /dev/ttyUSB6	1	0

2016-01-04 05:29:38,529 ERROR send(24) Socket error: /dev/ttyUSB0	1	1

2016-01-04 05:29:40,065 ERROR send(24) Socket error: /dev/ttyUSB0	1	0

2016-01-04 05:30:25,050 ERROR send(24) Socket error: /dev/ttyUSB6	1	1

2016-01-04 05:30:25,301 ERROR send(24) Socket error: /dev/ttyUSB6	1	0

2016-01-04 05:30:40,131 ERROR send(24) Socket error: /dev/ttyUSB0	1	1

2016-01-04 05:30:41,661 ERROR send(24) Socket error: /dev/ttyUSB0	1	0

2016-01-04 05:31:03,402 ERROR send(24) Socket error: /dev/ttyUSB5	1	1

2016-01-04 05:31:05,140 ERROR send(24) Socket error: /dev/ttyUSB5	1	0

2016-01-04 05:31:25,366 ERROR send(24) Socket error: /dev/ttyUSB6	1	1

2016-01-04 05:31:25,575 ERROR send(24) Socket error: /dev/ttyUSB6	1	0

2016-01-04 05:31:41,726 ERROR send(24) Socket error: /dev/ttyUSB0	1	1

2016-01-04 05:31:43,171 ERROR send(24) Socket error: /dev/ttyUSB0	1	0

2016-01-04 05:32:25,640 ERROR send(24) Socket error: /dev/ttyUSB6	1	1

2016-01-04 05:32:25,848 ERROR send(24) Socket error: /dev/ttyUSB6	1	0

2016-01-04 05:32:43,237 ERROR send(24) Socket error: /dev/ttyUSB0	1	1

2016-01-04 05:32:44,609 ERROR send(24) Socket error: /dev/ttyUSB0	1	0

2016-01-04 05:33:25,913 ERROR send(24) Socket error: /dev/ttyUSB6	1	1

2016-01-04 05:33:26,158 ERROR send(24) Socket error: /dev/ttyUSB6	1	0

2016-01-04 05:33:44,675 ERROR send(24) Socket error: /dev/ttyUSB0	1	1

2016-01-04 05:33:46,081 ERROR send(24) Socket error: /dev/ttyUSB0	1	0

2016-01-04 05:34:05,245 ERROR send(24) Socket error: /dev/ttyUSB5	1	1

2016-01-04 05:34:07,019 ERROR send(24) Socket error: /dev/ttyUSB5	1	0

2016-01-04 05:34:26,223 ERROR send(24) Socket error: /dev/ttyUSB6	1	1

2016-01-04 05:34:26,432 ERROR send(24) Socket error: /dev/ttyUSB6	1	0

2016-01-04 05:34:46,147 ERROR send(24) Socket error: /dev/ttyUSB0	1	1

2016-01-04 05:34:47,568 ERROR send(24) Socket error: /dev/ttyUSB0	1	0

2016-01-04 05:35:26,497 ERROR send(24) Socket error: /dev/ttyUSB6	1	1

2016-01-04 05:35:26,705 ERROR send(24) Socket error: /dev/ttyUSB6	1	0

2016-01-04 05:35:47,634 ERROR send(24) Socket error: /dev/ttyUSB0	1	1

2016-01-04 05:35:49,032 ERROR send(24) Socket error: /dev/ttyUSB0	1	0

