2015-08-09 15:48:21,085 ERROR readConfig(234) <class 'IndexError'>

2015-08-09 15:49:58,736 ERROR readConfig(234) <class 'IndexError'>

2015-08-09 15:49:58,736 ERROR readConfig(234) <class 'IndexError'>

2015-08-09 18:17:13,283 ERROR readConfig(234) <class 'IndexError'>

2015-08-09 19:46:56,617 ERROR readConfig(234) <class 'IndexError'>

2015-08-09 19:50:23,066 ERROR get(37) Socket error: CLIENT	GETSTARTUP	22

2015-08-09 19:50:23,066 ERROR get(37) Socket error: CLIENT	GETSTARTUP	22

2015-08-09 19:50:34,744 ERROR readConfig(234) <class 'IndexError'>

2015-08-09 19:50:34,744 ERROR readConfig(234) <class 'IndexError'>

2015-08-09 19:50:34,744 ERROR readConfig(234) <class 'IndexError'>

2015-08-09 19:57:49,701 ERROR send(24) Socket error: D	22	1	030

2015-08-09 19:57:49,701 ERROR send(24) Socket error: D	22	1	030

2015-08-09 19:57:49,701 ERROR send(24) Socket error: D	22	1	030

2015-08-09 19:57:49,701 ERROR send(24) Socket error: D	22	1	030

2015-08-09 19:58:10,781 ERROR send(24) Socket error: D	22	1	030

2015-08-09 19:58:10,781 ERROR send(24) Socket error: D	22	1	030

2015-08-09 19:58:10,781 ERROR send(24) Socket error: D	22	1	030

2015-08-09 19:58:10,781 ERROR send(24) Socket error: D	22	1	030

2015-08-09 19:58:31,880 ERROR send(24) Socket error: D	22	1	030

2015-08-09 19:58:31,880 ERROR send(24) Socket error: D	22	1	030

2015-08-09 19:58:31,880 ERROR send(24) Socket error: D	22	1	030

2015-08-09 19:58:31,880 ERROR send(24) Socket error: D	22	1	030

2015-08-09 19:58:52,979 ERROR send(24) Socket error: D	22	1	030

2015-08-09 19:58:52,979 ERROR send(24) Socket error: D	22	1	030

2015-08-09 19:58:52,979 ERROR send(24) Socket error: D	22	1	030

2015-08-09 19:58:52,979 ERROR send(24) Socket error: D	22	1	030

2015-08-09 19:59:14,001 ERROR send(24) Socket error: D	22	1	030

2015-08-09 19:59:14,001 ERROR send(24) Socket error: D	22	1	030

2015-08-09 19:59:14,001 ERROR send(24) Socket error: D	22	1	030

2015-08-09 19:59:14,001 ERROR send(24) Socket error: D	22	1	030

2015-08-09 19:59:35,002 ERROR send(24) Socket error: D	22	1	030

2015-08-09 19:59:35,002 ERROR send(24) Socket error: D	22	1	030

2015-08-09 19:59:35,002 ERROR send(24) Socket error: D	22	1	030

2015-08-09 19:59:35,002 ERROR send(24) Socket error: D	22	1	030

2015-08-09 19:59:56,100 ERROR send(24) Socket error: D	22	1	030

2015-08-09 19:59:56,100 ERROR send(24) Socket error: D	22	1	030

2015-08-09 19:59:56,100 ERROR send(24) Socket error: D	22	1	030

2015-08-09 19:59:56,100 ERROR send(24) Socket error: D	22	1	030

2015-08-09 20:00:17,133 ERROR send(24) Socket error: D	22	1	030

2015-08-09 20:00:17,133 ERROR send(24) Socket error: D	22	1	030

2015-08-09 20:00:17,133 ERROR send(24) Socket error: D	22	1	030

2015-08-09 20:00:17,133 ERROR send(24) Socket error: D	22	1	030

2015-08-09 20:00:38,187 ERROR send(24) Socket error: D	22	1	030

2015-08-09 20:00:38,187 ERROR send(24) Socket error: D	22	1	030

2015-08-09 20:00:38,187 ERROR send(24) Socket error: D	22	1	030

2015-08-09 20:00:38,187 ERROR send(24) Socket error: D	22	1	030

2015-08-09 20:00:59,200 ERROR send(24) Socket error: D	22	1	030

2015-08-09 20:00:59,200 ERROR send(24) Socket error: D	22	1	030

2015-08-09 20:00:59,200 ERROR send(24) Socket error: D	22	1	030

2015-08-09 20:00:59,200 ERROR send(24) Socket error: D	22	1	030

2015-08-09 20:14:07,011 ERROR send(24) Socket error: D	22	1	030

2015-08-09 20:14:28,103 ERROR send(24) Socket error: D	22	1	030

2015-08-09 20:14:49,169 ERROR send(24) Socket error: D	22	1	030

2015-08-09 20:57:11,731 ERROR send(24) Socket error: D	22	1	028

2015-08-09 20:57:32,821 ERROR send(24) Socket error: D	22	1	028

2015-08-09 20:57:53,867 ERROR send(24) Socket error: D	22	1	028

2015-08-09 20:58:14,921 ERROR send(24) Socket error: D	22	1	028

2015-08-09 20:58:35,952 ERROR send(24) Socket error: D	22	1	028

2015-08-09 20:58:56,971 ERROR send(24) Socket error: D	22	1	028

2015-08-09 20:59:18,034 ERROR send(24) Socket error: D	22	1	028

2015-08-09 20:59:39,038 ERROR send(24) Socket error: D	22	1	028

2015-08-09 21:00:00,062 ERROR send(24) Socket error: D	22	1	028

2015-08-09 21:00:21,162 ERROR send(24) Socket error: D	22	1	028

2015-08-09 21:00:42,164 ERROR send(24) Socket error: D	22	1	028

2015-08-09 21:01:03,265 ERROR send(24) Socket error: D	22	1	028

2015-08-09 21:01:24,362 ERROR send(24) Socket error: D	22	1	028

2015-08-09 21:01:45,452 ERROR send(24) Socket error: D	22	1	028

2015-08-09 21:02:06,563 ERROR send(24) Socket error: D	22	1	028

2015-08-09 21:02:27,632 ERROR send(24) Socket error: D	22	1	028

2015-08-09 21:02:48,706 ERROR send(24) Socket error: D	22	1	028

2015-08-09 21:03:09,725 ERROR send(24) Socket error: D	22	1	028

2015-08-09 21:03:30,725 ERROR send(24) Socket error: D	22	1	028

2015-08-09 21:03:51,736 ERROR send(24) Socket error: D	22	1	028

2015-08-09 21:04:12,825 ERROR send(24) Socket error: D	22	1	028

2015-08-09 21:04:33,929 ERROR send(24) Socket error: D	22	1	028

