<<<<<<< HEAD
2015-07-26 16:35:07,308 ERROR send(24) Socket error: D	22	1	0SERIAL_CONNECTION_ERROR

2015-07-26 16:35:28,333 ERROR send(24) Socket error: D	22	1	0SERIAL_CONNECTION_ERROR

2015-07-26 16:35:49,394 ERROR send(24) Socket error: D	22	1	0SERIAL_CONNECTION_ERROR

2015-07-26 16:36:10,426 ERROR send(24) Socket error: D	22	1	0SERIAL_CONNECTION_ERROR

2015-07-26 16:36:31,526 ERROR send(24) Socket error: D	22	1	0SERIAL_CONNECTION_ERROR

2015-07-26 16:36:52,594 ERROR send(24) Socket error: D	22	1	0SERIAL_CONNECTION_ERROR

2015-07-26 16:37:13,680 ERROR send(24) Socket error: D	22	1	0SERIAL_CONNECTION_ERROR

2015-07-26 16:37:34,703 ERROR send(24) Socket error: D	22	1	0SERIAL_CONNECTION_ERROR

2015-07-26 16:37:55,804 ERROR send(24) Socket error: D	22	1	0SERIAL_CONNECTION_ERROR

2015-07-26 16:38:16,830 ERROR send(24) Socket error: D	22	1	0SERIAL_CONNECTION_ERROR

2015-07-26 16:38:37,893 ERROR send(24) Socket error: D	22	1	0SERIAL_CONNECTION_ERROR

2015-07-26 16:38:58,993 ERROR send(24) Socket error: D	22	1	0SERIAL_CONNECTION_ERROR

2015-07-26 16:39:20,019 ERROR send(24) Socket error: D	22	1	0SERIAL_CONNECTION_ERROR

2015-07-26 16:39:41,094 ERROR send(24) Socket error: D	22	1	0SERIAL_CONNECTION_ERROR

2015-07-26 16:40:02,206 ERROR send(24) Socket error: D	22	1	018

2015-07-26 16:40:23,306 ERROR send(24) Socket error: D	22	1	018

2015-07-26 16:40:44,419 ERROR send(24) Socket error: D	22	1	018

2015-07-26 16:41:05,506 ERROR send(24) Socket error: D	22	1	018

2015-07-26 17:51:11,658 ERROR send(24) Socket error: D	22	1	0FUCK

2015-07-26 17:52:32,738 ERROR send(24) Socket error: D	22	1	0FUCK

2015-07-26 18:11:17,617 ERROR send(24) Socket error: D	22	1	031

2015-07-26 18:11:38,730 ERROR send(24) Socket error: D	22	1	031

2015-07-26 18:12:00,135 ERROR send(24) Socket error: D	22	1	031

2015-07-26 19:35:23,255 ERROR send(24) Socket error: D	22	1	017

2015-07-27 20:50:00,420 ERROR send(24) Socket error: D	22	1	030

2015-07-27 20:50:21,551 ERROR send(24) Socket error: D	22	1	030
=======
2015-07-14 21:34:42,520 ERROR send(25) Socket error: D	22	1	033

2015-07-14 21:35:02,528 ERROR send(25) Socket error: D	22	1	033

2015-07-14 21:35:22,543 ERROR send(25) Socket error: D	22	1	033

2015-07-14 21:35:42,546 ERROR send(25) Socket error: D	22	1	033

2015-07-14 21:36:02,549 ERROR send(25) Socket error: D	22	1	033

2015-07-14 21:36:22,553 ERROR send(25) Socket error: D	22	1	033

2015-07-14 21:36:42,557 ERROR send(25) Socket error: D	22	1	033

2015-07-14 21:37:02,560 ERROR send(25) Socket error: D	22	1	033

2015-07-14 21:37:22,563 ERROR send(25) Socket error: D	22	1	033

2015-07-14 21:37:42,579 ERROR send(25) Socket error: D	22	1	033

2015-07-14 21:38:02,582 ERROR send(25) Socket error: D	22	1	033

2015-07-14 21:38:22,587 ERROR send(25) Socket error: D	22	1	033

2015-07-14 21:39:15,371 ERROR send(25) Socket error: D	22	1	033

2015-07-14 21:39:35,374 ERROR send(25) Socket error: D	22	1	033

2015-07-14 21:39:55,376 ERROR send(25) Socket error: D	22	1	033

2015-07-17 14:58:31,420 ERROR get(36) Socket error: CLIENT	GETSTARTUP	22

2015-07-18 16:35:35,757 ERROR main(98) ERROR_SET_COMMAND_INVALID_TAG

2015-07-18 16:37:39,671 ERROR main(115) main()<class 'AttributeError'>

2015-07-18 18:01:51,564 ERROR main(106) UNKNOWN_COMMAND: UNKNOWN_COMMAND

2015-07-18 18:02:33,011 ERROR main(106) UNKNOWN_COMMAND: UNKNOWN_COMMAND

2015-07-18 18:09:02,044 INFO main(75) Stop command

2015-07-18 18:20:21,282 INFO main(75) Stop command

2015-07-18 18:20:21,282 INFO main(75) Stop command

2015-07-18 18:22:06,450 INFO main(75) Stop command

2015-07-18 18:28:49,912 INFO main(75) Stop command

2015-07-18 18:33:01,352 INFO main(75) Stop command

2015-07-18 18:33:31,280 INFO main(75) Stop command

2015-07-18 18:33:31,280 INFO main(75) Stop command

2015-07-18 18:34:33,869 INFO main(75) Stop command

2015-07-18 18:34:33,869 INFO main(75) Stop command

2015-07-18 18:34:33,869 INFO main(75) Stop command

2015-07-18 18:35:56,891 INFO main(75) Stop command

2015-07-18 18:35:56,891 INFO main(75) Stop command

2015-07-18 18:35:56,891 INFO main(75) Stop command

2015-07-18 18:35:56,891 INFO main(75) Stop command

2015-07-18 18:36:58,617 INFO main(76) Stop command

2015-07-18 20:57:34,596 INFO main(76) Stop command

2015-07-18 20:57:34,596 INFO main(76) Stop command

2015-07-18 20:59:35,866 INFO main(76) Stop command

2015-07-18 20:59:35,866 INFO main(76) Stop command

2015-07-18 20:59:35,866 INFO main(76) Stop command

2015-07-18 21:01:02,877 INFO main(75) Stop command

2015-07-18 21:15:15,869 ERROR handleValue(117) Can't handle value(on_off, 0)

2015-07-18 21:15:15,869 ERROR handleValue(117) Can't handle value(on_off, 0)

2015-07-18 21:15:17,047 ERROR handleValue(117) Can't handle value(on_off, 0)

2015-07-18 21:15:17,047 ERROR handleValue(117) Can't handle value(on_off, 0)

2015-07-18 21:17:15,533 ERROR handleValue(117) Can't handle value(on_off, 1)

2015-07-18 21:17:15,533 ERROR handleValue(117) Can't handle value(on_off, 1)

2015-07-18 21:17:16,616 ERROR handleValue(117) Can't handle value(on_off, 1)

2015-07-18 21:17:16,616 ERROR handleValue(117) Can't handle value(on_off, 1)

2015-07-18 21:22:49,416 INFO main(75) Stop command
>>>>>>> 6b5cb1a61b7cf289851c1cbaf2f1cce02335e202

