2015-11-05 02:21:28,580 ERROR send(24) Socket error: D	19	9	02

2015-11-05 02:22:20,080 ERROR send(24) Socket error: D	19	102	019

2015-11-05 02:22:32,580 ERROR send(24) Socket error: D	20	67	0214.9

2015-11-05 02:24:27,580 ERROR send(24) Socket error: D	19	2	018

2015-11-05 02:24:40,080 ERROR send(24) Socket error: D	20	107	056.4

2015-11-05 02:26:35,080 ERROR send(24) Socket error: D	19	101	053

2015-11-05 02:26:47,580 ERROR send(24) Socket error: D	20	66	0224.9

2015-11-05 02:28:42,580 ERROR send(24) Socket error: D	19	104	080

2015-11-05 02:28:55,080 ERROR send(24) Socket error: D	20	61	00.0

2015-11-05 02:31:02,580 ERROR send(24) Socket error: D	20	106	054.0

2015-11-05 02:32:00,080 ERROR send(24) Socket error: D	19	103	039

2015-11-05 02:34:07,580 ERROR send(24) Socket error: D	19	102	019

2015-11-05 02:34:20,080 ERROR send(24) Socket error: D	20	69	075.4

2015-11-05 02:36:15,080 ERROR send(24) Socket error: D	19	2	018

2015-11-05 02:36:27,580 ERROR send(24) Socket error: D	20	124	049.2

2015-11-05 02:38:22,580 ERROR send(24) Socket error: D	19	101	050

2015-11-05 02:38:35,080 ERROR send(24) Socket error: D	20	125	0-73.8

2015-11-05 02:40:30,080 ERROR send(24) Socket error: D	19	104	078

2015-11-05 02:40:42,580 ERROR send(24) Socket error: D	20	126	0480

2015-11-05 02:42:50,080 ERROR send(24) Socket error: D	20	108	06

2015-11-05 02:43:47,580 ERROR send(24) Socket error: D	19	103	051

2015-11-05 02:44:57,580 ERROR send(24) Socket error: D	20	109	04

2015-11-05 02:45:55,080 ERROR send(24) Socket error: D	19	102	020

2015-11-05 02:47:05,080 ERROR send(24) Socket error: D	20	65	0214.6

2015-11-05 02:48:02,580 ERROR send(24) Socket error: D	19	2	018

2015-11-05 02:49:12,580 ERROR send(24) Socket error: D	20	68	054.5

2015-11-05 02:50:10,080 ERROR send(24) Socket error: D	19	101	04

2015-11-05 02:51:20,080 ERROR send(24) Socket error: D	20	67	0213.6

2015-11-05 02:52:17,580 ERROR send(24) Socket error: D	19	104	051

2015-11-05 02:53:27,580 ERROR send(24) Socket error: D	20	107	056.4

2015-11-05 02:55:35,080 ERROR send(24) Socket error: D	20	66	0219.8

2015-11-05 02:55:35,084 ERROR send(24) Socket error: D	19	103	046

2015-11-05 02:57:42,580 ERROR send(24) Socket error: D	19	102	020

2015-11-05 02:57:42,581 ERROR send(24) Socket error: D	20	61	00.0

2015-11-05 02:59:50,080 ERROR send(24) Socket error: D	19	2	018

2015-11-05 02:59:50,081 ERROR send(24) Socket error: D	20	106	054.0

2015-11-05 03:01:57,580 ERROR send(24) Socket error: D	19	101	057

2015-11-05 03:03:07,580 ERROR send(24) Socket error: D	20	69	077.7

2015-11-05 03:04:05,085 ERROR send(24) Socket error: D	19	104	076

2015-11-05 03:05:15,080 ERROR send(24) Socket error: D	20	124	049.2

2015-11-05 03:07:22,580 ERROR send(24) Socket error: D	20	125	0-73.8

2015-11-05 03:07:22,581 ERROR send(24) Socket error: D	19	103	047

2015-11-05 03:09:30,080 ERROR send(24) Socket error: D	20	126	0480

2015-11-05 03:09:30,084 ERROR send(24) Socket error: D	19	102	020

2015-11-05 03:11:37,580 ERROR send(24) Socket error: D	19	2	018

2015-11-05 03:11:37,584 ERROR send(24) Socket error: D	20	108	06

2015-11-05 03:13:45,080 ERROR send(24) Socket error: D	20	109	04

2015-11-05 03:13:45,081 ERROR send(24) Socket error: D	19	101	059

2015-11-05 03:15:52,584 ERROR send(24) Socket error: D	20	65	0221.8

2015-11-05 03:15:52,588 ERROR send(24) Socket error: D	19	104	076

2015-11-05 03:18:00,080 ERROR send(24) Socket error: D	20	68	054.5

2015-11-05 03:19:10,080 ERROR send(24) Socket error: D	19	103	054

2015-11-05 03:20:07,580 ERROR send(24) Socket error: D	20	67	0209.5

2015-11-05 03:21:17,580 ERROR send(24) Socket error: D	19	102	021

2015-11-05 03:22:15,080 ERROR send(24) Socket error: D	20	107	056.4

2015-11-05 03:23:25,080 ERROR send(24) Socket error: D	19	2	018

2015-11-05 03:24:22,580 ERROR send(24) Socket error: D	20	66	0229.4

2015-11-05 03:25:32,580 ERROR send(24) Socket error: D	19	101	054

2015-11-05 03:26:30,080 ERROR send(24) Socket error: D	20	61	00.0

2015-11-05 03:27:40,080 ERROR send(24) Socket error: D	19	104	078

2015-11-05 03:28:37,580 ERROR send(24) Socket error: D	20	106	054.0

2015-11-05 03:30:57,580 ERROR send(24) Socket error: D	19	103	047

2015-11-05 03:31:55,080 ERROR send(24) Socket error: D	20	69	079.2

2015-11-05 03:33:05,080 ERROR send(24) Socket error: D	19	102	021

2015-11-05 03:34:02,580 ERROR send(24) Socket error: D	20	124	049.2

2015-11-05 03:35:12,580 ERROR send(24) Socket error: D	19	2	018

2015-11-05 03:36:10,080 ERROR send(24) Socket error: D	20	125	0-73.8

2015-11-05 03:37:20,080 ERROR send(24) Socket error: D	19	101	059

2015-11-05 03:38:17,580 ERROR send(24) Socket error: D	20	126	0480

2015-11-05 17:06:56,850 ERROR send(24) Socket error: D	20	69	070.8

2015-11-05 17:06:59,861 ERROR send(24) Socket error: D	20	124	049.2

2015-11-05 17:07:02,873 ERROR send(24) Socket error: D	20	125	0-73.8

2015-11-05 17:07:02,874 ERROR send(24) Socket error: D	19	220	0TIME_OUT

2015-11-05 17:07:05,885 ERROR send(24) Socket error: D	20	126	0480

2015-11-05 17:07:08,897 ERROR send(24) Socket error: D	20	108	06

