2015-12-20 00:59:57,537 ERROR send(24) Socket error: /dev/ttyUSB5	1	0

2015-12-20 01:00:43,093 ERROR send(24) Socket error: /dev/ttyUSB0	1	1

2015-12-20 01:00:57,606 ERROR send(24) Socket error: /dev/ttyUSB5	1	1

2015-12-20 01:00:59,362 ERROR send(24) Socket error: /dev/ttyUSB5	1	0

2015-12-20 01:01:07,552 ERROR send(24) Socket error: /dev/ttyUSB0	1	0

2015-12-20 01:01:59,428 ERROR send(24) Socket error: /dev/ttyUSB5	1	1

2015-12-20 01:02:01,179 ERROR send(24) Socket error: /dev/ttyUSB5	1	0

2015-12-20 01:02:07,618 ERROR send(24) Socket error: /dev/ttyUSB0	1	1

2015-12-20 01:02:32,513 ERROR send(24) Socket error: /dev/ttyUSB0	1	0

2015-12-20 01:03:01,245 ERROR send(24) Socket error: /dev/ttyUSB5	1	1

2015-12-20 01:03:02,993 ERROR send(24) Socket error: /dev/ttyUSB5	1	0

2015-12-20 01:03:32,580 ERROR send(24) Socket error: /dev/ttyUSB0	1	1

2015-12-20 01:04:03,015 ERROR send(24) Socket error: /dev/ttyUSB5	1	1

2015-12-20 01:04:04,764 ERROR send(24) Socket error: /dev/ttyUSB5	1	0

2015-12-20 01:04:07,513 ERROR send(24) Socket error: /dev/ttyUSB0	1	0

2015-12-20 01:05:04,830 ERROR send(24) Socket error: /dev/ttyUSB5	1	1

2015-12-20 01:05:06,583 ERROR send(24) Socket error: /dev/ttyUSB5	1	0

2015-12-20 01:05:07,579 ERROR send(24) Socket error: /dev/ttyUSB0	1	1

2015-12-20 01:05:31,961 ERROR send(24) Socket error: /dev/ttyUSB0	1	0

2015-12-20 01:06:06,650 ERROR send(24) Socket error: /dev/ttyUSB5	1	1

2015-12-20 01:06:08,396 ERROR send(24) Socket error: /dev/ttyUSB5	1	0

2015-12-20 01:06:32,030 ERROR send(24) Socket error: /dev/ttyUSB0	1	1

2015-12-20 01:07:06,912 ERROR send(24) Socket error: /dev/ttyUSB0	1	0

2015-12-20 01:07:08,462 ERROR send(24) Socket error: /dev/ttyUSB5	1	1

2015-12-20 01:07:10,215 ERROR send(24) Socket error: /dev/ttyUSB5	1	0

2015-12-20 01:08:06,979 ERROR send(24) Socket error: /dev/ttyUSB0	1	1

2015-12-20 01:08:10,272 ERROR send(24) Socket error: /dev/ttyUSB5	1	1

2015-12-20 01:08:12,047 ERROR send(24) Socket error: /dev/ttyUSB5	1	0

2015-12-20 01:08:31,391 ERROR send(24) Socket error: /dev/ttyUSB0	1	0

2015-12-20 01:09:12,113 ERROR send(24) Socket error: /dev/ttyUSB5	1	1

2015-12-20 01:09:13,864 ERROR send(24) Socket error: /dev/ttyUSB5	1	0

2015-12-20 01:09:31,457 ERROR send(24) Socket error: /dev/ttyUSB0	1	1

2015-12-20 01:09:55,889 ERROR send(24) Socket error: /dev/ttyUSB0	1	0

2015-12-20 01:10:13,931 ERROR send(24) Socket error: /dev/ttyUSB5	1	1

2015-12-20 01:10:15,705 ERROR send(24) Socket error: /dev/ttyUSB5	1	0

2015-12-20 01:10:55,956 ERROR send(24) Socket error: /dev/ttyUSB0	1	1

2015-12-20 01:11:15,771 ERROR send(24) Socket error: /dev/ttyUSB5	1	1

2015-12-20 01:11:17,519 ERROR send(24) Socket error: /dev/ttyUSB5	1	0

2015-12-20 01:11:20,344 ERROR send(24) Socket error: /dev/ttyUSB0	1	0

2015-12-20 01:12:17,586 ERROR send(24) Socket error: /dev/ttyUSB5	1	1

2015-12-20 01:12:19,335 ERROR send(24) Socket error: /dev/ttyUSB5	1	0

2015-12-20 01:12:20,411 ERROR send(24) Socket error: /dev/ttyUSB0	1	1

2015-12-20 01:12:45,349 ERROR send(24) Socket error: /dev/ttyUSB0	1	0

2015-12-20 01:13:19,402 ERROR send(24) Socket error: /dev/ttyUSB5	1	1

2015-12-20 01:13:21,153 ERROR send(24) Socket error: /dev/ttyUSB5	1	0

2015-12-20 01:13:45,416 ERROR send(24) Socket error: /dev/ttyUSB0	1	1

