2015-12-20 00:16:40,130 ERROR send(24) Socket error: /dev/ttyUSB5	1	0

2015-12-20 00:17:27,768 ERROR send(24) Socket error: /dev/ttyUSB0	1	1

2015-12-20 00:17:40,212 ERROR send(24) Socket error: /dev/ttyUSB5	1	1

2015-12-20 00:17:42,093 ERROR send(24) Socket error: /dev/ttyUSB5	1	0

2015-12-20 00:17:52,210 ERROR send(24) Socket error: /dev/ttyUSB0	1	0

2015-12-20 00:18:42,159 ERROR send(24) Socket error: /dev/ttyUSB5	1	1

2015-12-20 00:18:43,910 ERROR send(24) Socket error: /dev/ttyUSB5	1	0

2015-12-20 00:18:52,277 ERROR send(24) Socket error: /dev/ttyUSB0	1	1

2015-12-20 00:19:16,657 ERROR send(24) Socket error: /dev/ttyUSB0	1	0

2015-12-20 00:19:43,977 ERROR send(24) Socket error: /dev/ttyUSB5	1	1

2015-12-20 00:19:45,808 ERROR send(24) Socket error: /dev/ttyUSB5	1	0

2015-12-20 00:20:16,724 ERROR send(24) Socket error: /dev/ttyUSB0	1	1

2015-12-20 00:20:41,230 ERROR send(24) Socket error: /dev/ttyUSB0	1	0

2015-12-20 00:20:45,883 ERROR send(24) Socket error: /dev/ttyUSB5	1	1

2015-12-20 00:20:47,642 ERROR send(24) Socket error: /dev/ttyUSB5	1	0

2015-12-20 00:21:41,247 ERROR send(24) Socket error: /dev/ttyUSB0	1	1

2015-12-20 00:21:47,708 ERROR send(24) Socket error: /dev/ttyUSB5	1	1

2015-12-20 00:21:49,459 ERROR send(24) Socket error: /dev/ttyUSB5	1	0

2015-12-20 00:22:05,640 ERROR send(24) Socket error: /dev/ttyUSB0	1	0

2015-12-20 00:22:49,525 ERROR send(24) Socket error: /dev/ttyUSB5	1	1

2015-12-20 00:22:51,310 ERROR send(24) Socket error: /dev/ttyUSB5	1	0

2015-12-20 00:23:05,709 ERROR send(24) Socket error: /dev/ttyUSB0	1	1

2015-12-20 00:23:50,166 ERROR send(24) Socket error: /dev/ttyUSB0	1	0

2015-12-20 00:23:51,376 ERROR send(24) Socket error: /dev/ttyUSB5	1	1

2015-12-20 00:23:53,127 ERROR send(24) Socket error: /dev/ttyUSB5	1	0

2015-12-20 00:24:50,233 ERROR send(24) Socket error: /dev/ttyUSB0	1	1

2015-12-20 00:24:53,194 ERROR send(24) Socket error: /dev/ttyUSB5	1	1

2015-12-20 00:24:54,992 ERROR send(24) Socket error: /dev/ttyUSB5	1	0

2015-12-20 00:25:14,756 ERROR send(24) Socket error: /dev/ttyUSB0	1	0

2015-12-20 00:25:55,058 ERROR send(24) Socket error: /dev/ttyUSB5	1	1

2015-12-20 00:25:56,804 ERROR send(24) Socket error: /dev/ttyUSB5	1	0

2015-12-20 00:26:14,822 ERROR send(24) Socket error: /dev/ttyUSB0	1	1

2015-12-20 00:26:39,196 ERROR send(24) Socket error: /dev/ttyUSB0	1	0

2015-12-20 00:26:56,871 ERROR send(24) Socket error: /dev/ttyUSB5	1	1

2015-12-20 00:26:58,645 ERROR send(24) Socket error: /dev/ttyUSB5	1	0

2015-12-20 00:27:39,263 ERROR send(24) Socket error: /dev/ttyUSB0	1	1

2015-12-20 00:27:58,678 ERROR send(24) Socket error: /dev/ttyUSB5	1	1

2015-12-20 00:28:00,467 ERROR send(24) Socket error: /dev/ttyUSB5	1	0

2015-12-20 00:28:14,182 ERROR send(24) Socket error: /dev/ttyUSB0	1	0

2015-12-20 00:29:00,533 ERROR send(24) Socket error: /dev/ttyUSB5	1	1

2015-12-20 00:29:02,335 ERROR send(24) Socket error: /dev/ttyUSB5	1	0

2015-12-20 00:29:14,249 ERROR send(24) Socket error: /dev/ttyUSB0	1	1

2015-12-20 00:29:38,713 ERROR send(24) Socket error: /dev/ttyUSB0	1	0

2015-12-20 00:30:02,401 ERROR send(24) Socket error: /dev/ttyUSB5	1	1

2015-12-20 00:30:04,175 ERROR send(24) Socket error: /dev/ttyUSB5	1	0

2015-12-20 00:30:38,780 ERROR send(24) Socket error: /dev/ttyUSB0	1	1

2015-12-20 00:31:04,242 ERROR send(24) Socket error: /dev/ttyUSB5	1	1

2015-12-20 00:31:06,013 ERROR send(24) Socket error: /dev/ttyUSB5	1	0

2015-12-20 00:31:12,488 ERROR send(24) Socket error: /dev/ttyUSB0	1	0

2015-12-20 00:32:06,082 ERROR send(24) Socket error: /dev/ttyUSB5	1	1

2015-12-20 00:32:07,824 ERROR send(24) Socket error: /dev/ttyUSB5	1	0

2015-12-20 00:32:12,553 ERROR send(24) Socket error: /dev/ttyUSB0	1	1

2015-12-20 00:32:37,599 ERROR send(24) Socket error: /dev/ttyUSB0	1	0

2015-12-20 00:33:07,891 ERROR send(24) Socket error: /dev/ttyUSB5	1	1

2015-12-20 00:33:09,713 ERROR send(24) Socket error: /dev/ttyUSB5	1	0

2015-12-20 00:33:37,666 ERROR send(24) Socket error: /dev/ttyUSB0	1	1

2015-12-20 00:34:02,097 ERROR send(24) Socket error: /dev/ttyUSB0	1	0

2015-12-20 00:34:09,782 ERROR send(24) Socket error: /dev/ttyUSB5	1	1

2015-12-20 00:34:11,537 ERROR send(24) Socket error: /dev/ttyUSB5	1	0

2015-12-20 00:35:02,163 ERROR send(24) Socket error: /dev/ttyUSB0	1	1

2015-12-20 00:35:11,603 ERROR send(24) Socket error: /dev/ttyUSB5	1	1

2015-12-20 00:35:13,523 ERROR send(24) Socket error: /dev/ttyUSB5	1	0

2015-12-20 00:35:27,069 ERROR send(24) Socket error: /dev/ttyUSB0	1	0

2015-12-20 00:36:13,599 ERROR send(24) Socket error: /dev/ttyUSB5	1	1

2015-12-20 00:36:15,366 ERROR send(24) Socket error: /dev/ttyUSB5	1	0

2015-12-20 00:36:27,135 ERROR send(24) Socket error: /dev/ttyUSB0	1	1

2015-12-20 00:36:51,519 ERROR send(24) Socket error: /dev/ttyUSB0	1	0

2015-12-20 00:37:15,433 ERROR send(24) Socket error: /dev/ttyUSB5	1	1

2015-12-20 00:37:17,225 ERROR send(24) Socket error: /dev/ttyUSB5	1	0

2015-12-20 00:37:51,585 ERROR send(24) Socket error: /dev/ttyUSB0	1	1

2015-12-20 00:38:16,027 ERROR send(24) Socket error: /dev/ttyUSB0	1	0

2015-12-20 00:38:17,294 ERROR send(24) Socket error: /dev/ttyUSB5	1	1

