2016-01-04 05:04:17,672 ERROR send(24) Socket error: /dev/ttyUSB6	1	1

2016-01-04 05:04:17,889 ERROR send(24) Socket error: /dev/ttyUSB6	1	0

2016-01-04 05:05:02,241 ERROR send(24) Socket error: /dev/ttyUSB0	1	1

2016-01-04 05:05:03,618 ERROR send(24) Socket error: /dev/ttyUSB0	1	0

2016-01-04 05:05:17,954 ERROR send(24) Socket error: /dev/ttyUSB6	1	1

2016-01-04 05:05:18,162 ERROR send(24) Socket error: /dev/ttyUSB6	1	0

2016-01-04 05:06:03,684 ERROR send(24) Socket error: /dev/ttyUSB0	1	1

2016-01-04 05:06:05,091 ERROR send(24) Socket error: /dev/ttyUSB0	1	0

2016-01-04 05:06:18,227 ERROR send(24) Socket error: /dev/ttyUSB6	1	1

2016-01-04 05:06:18,436 ERROR send(24) Socket error: /dev/ttyUSB6	1	0

2016-01-04 05:06:48,415 ERROR send(24) Socket error: /dev/ttyUSB5	1	1

2016-01-04 05:06:50,156 ERROR send(24) Socket error: /dev/ttyUSB5	1	0

2016-01-04 05:07:05,157 ERROR send(24) Socket error: /dev/ttyUSB0	1	1

2016-01-04 05:07:06,589 ERROR send(24) Socket error: /dev/ttyUSB0	1	0

2016-01-04 05:07:18,501 ERROR send(24) Socket error: /dev/ttyUSB6	1	1

2016-01-04 05:07:18,707 ERROR send(24) Socket error: /dev/ttyUSB6	1	0

2016-01-04 05:08:06,654 ERROR send(24) Socket error: /dev/ttyUSB0	1	1

2016-01-04 05:08:08,148 ERROR send(24) Socket error: /dev/ttyUSB0	1	0

2016-01-04 05:08:18,772 ERROR send(24) Socket error: /dev/ttyUSB6	1	1

2016-01-04 05:08:19,010 ERROR send(24) Socket error: /dev/ttyUSB6	1	0

2016-01-04 05:09:08,183 ERROR send(24) Socket error: /dev/ttyUSB0	1	1

2016-01-04 05:09:09,666 ERROR send(24) Socket error: /dev/ttyUSB0	1	0

2016-01-04 05:09:19,078 ERROR send(24) Socket error: /dev/ttyUSB6	1	1

2016-01-04 05:09:19,292 ERROR send(24) Socket error: /dev/ttyUSB6	1	0

2016-01-04 05:09:50,261 ERROR send(24) Socket error: /dev/ttyUSB5	1	1

2016-01-04 05:09:52,087 ERROR send(24) Socket error: /dev/ttyUSB5	1	0

2016-01-04 05:10:09,683 ERROR send(24) Socket error: /dev/ttyUSB0	1	1

2016-01-04 05:10:11,068 ERROR send(24) Socket error: /dev/ttyUSB0	1	0

2016-01-04 05:10:19,357 ERROR send(24) Socket error: /dev/ttyUSB6	1	1

2016-01-04 05:10:19,563 ERROR send(24) Socket error: /dev/ttyUSB6	1	0

2016-01-04 05:11:11,134 ERROR send(24) Socket error: /dev/ttyUSB0	1	1

2016-01-04 05:11:12,485 ERROR send(24) Socket error: /dev/ttyUSB0	1	0

2016-01-04 05:11:19,629 ERROR send(24) Socket error: /dev/ttyUSB6	1	1

2016-01-04 05:11:19,838 ERROR send(24) Socket error: /dev/ttyUSB6	1	0

2016-01-04 05:12:12,550 ERROR send(24) Socket error: /dev/ttyUSB0	1	1

2016-01-04 05:12:13,930 ERROR send(24) Socket error: /dev/ttyUSB0	1	0

2016-01-04 05:12:19,879 ERROR send(24) Socket error: /dev/ttyUSB6	1	1

2016-01-04 05:12:20,089 ERROR send(24) Socket error: /dev/ttyUSB6	1	0

2016-01-04 05:12:52,198 ERROR send(24) Socket error: /dev/ttyUSB5	1	1

2016-01-04 05:12:53,999 ERROR send(24) Socket error: /dev/ttyUSB5	1	0

2016-01-04 05:13:13,995 ERROR send(24) Socket error: /dev/ttyUSB0	1	1

2016-01-04 05:13:15,542 ERROR send(24) Socket error: /dev/ttyUSB0	1	0

2016-01-04 05:13:20,154 ERROR send(24) Socket error: /dev/ttyUSB6	1	1

2016-01-04 05:13:20,362 ERROR send(24) Socket error: /dev/ttyUSB6	1	0

2016-01-04 05:14:15,607 ERROR send(24) Socket error: /dev/ttyUSB0	1	1

2016-01-04 05:14:17,130 ERROR send(24) Socket error: /dev/ttyUSB0	1	0

2016-01-04 05:14:20,430 ERROR send(24) Socket error: /dev/ttyUSB6	1	1

2016-01-04 05:14:20,639 ERROR send(24) Socket error: /dev/ttyUSB6	1	0

2016-01-04 05:15:17,200 ERROR send(24) Socket error: /dev/ttyUSB0	1	1

2016-01-04 05:15:18,747 ERROR send(24) Socket error: /dev/ttyUSB0	1	0

2016-01-04 05:15:20,704 ERROR send(24) Socket error: /dev/ttyUSB6	1	1

2016-01-04 05:15:20,920 ERROR send(24) Socket error: /dev/ttyUSB6	1	0

2016-01-04 05:15:54,105 ERROR send(24) Socket error: /dev/ttyUSB5	1	1

2016-01-04 05:15:55,878 ERROR send(24) Socket error: /dev/ttyUSB5	1	0

2016-01-04 05:16:18,818 ERROR send(24) Socket error: /dev/ttyUSB0	1	1

2016-01-04 05:16:20,296 ERROR send(24) Socket error: /dev/ttyUSB0	1	0

2016-01-04 05:16:20,985 ERROR send(24) Socket error: /dev/ttyUSB6	1	1

2016-01-04 05:16:21,200 ERROR send(24) Socket error: /dev/ttyUSB6	1	0

2016-01-04 05:17:20,361 ERROR send(24) Socket error: /dev/ttyUSB0	1	1

2016-01-04 05:17:21,265 ERROR send(24) Socket error: /dev/ttyUSB6	1	1

2016-01-04 05:17:21,613 ERROR send(24) Socket error: /dev/ttyUSB6	1	0

2016-01-04 05:17:21,917 ERROR send(24) Socket error: /dev/ttyUSB0	1	0

2016-01-04 05:18:21,701 ERROR send(24) Socket error: /dev/ttyUSB6	1	1

2016-01-04 05:18:21,946 ERROR send(24) Socket error: /dev/ttyUSB6	1	0

2016-01-04 05:18:21,982 ERROR send(24) Socket error: /dev/ttyUSB0	1	1

2016-01-04 05:18:23,353 ERROR send(24) Socket error: /dev/ttyUSB0	1	0

2016-01-04 05:18:55,983 ERROR send(24) Socket error: /dev/ttyUSB5	1	1

2016-01-04 05:18:57,724 ERROR send(24) Socket error: /dev/ttyUSB5	1	0

2016-01-04 05:19:22,012 ERROR send(24) Socket error: /dev/ttyUSB6	1	1

2016-01-04 05:19:22,219 ERROR send(24) Socket error: /dev/ttyUSB6	1	0

2016-01-04 05:19:23,418 ERROR send(24) Socket error: /dev/ttyUSB0	1	1

2016-01-04 05:19:24,839 ERROR send(24) Socket error: /dev/ttyUSB0	1	0

