2015-12-18 14:38:05,991 ERROR send(24) Socket error: /dev/ttyUSB2	1	1

2015-12-18 14:38:31,390 ERROR send(24) Socket error: /dev/ttyUSB2	1	0

2015-12-18 14:39:31,460 ERROR send(24) Socket error: /dev/ttyUSB2	1	1

2015-12-18 14:39:56,852 ERROR send(24) Socket error: /dev/ttyUSB2	1	0

2015-12-18 14:40:56,923 ERROR send(24) Socket error: /dev/ttyUSB2	1	1

2015-12-18 14:41:22,309 ERROR send(24) Socket error: /dev/ttyUSB2	1	0

2015-12-18 14:42:22,372 ERROR send(24) Socket error: /dev/ttyUSB2	1	1

2015-12-18 14:42:47,769 ERROR send(24) Socket error: /dev/ttyUSB2	1	0

2015-12-18 14:43:47,833 ERROR send(24) Socket error: /dev/ttyUSB2	1	1

2015-12-18 14:44:13,222 ERROR send(24) Socket error: /dev/ttyUSB2	1	0

2015-12-18 14:45:13,287 ERROR send(24) Socket error: /dev/ttyUSB2	1	1

2015-12-18 14:45:38,675 ERROR send(24) Socket error: /dev/ttyUSB2	1	0

2015-12-18 14:46:38,739 ERROR send(24) Socket error: /dev/ttyUSB2	1	1

2015-12-18 14:47:04,137 ERROR send(24) Socket error: /dev/ttyUSB2	1	0

2015-12-18 14:48:04,202 ERROR send(24) Socket error: /dev/ttyUSB2	1	1

2015-12-18 14:48:29,597 ERROR send(24) Socket error: /dev/ttyUSB2	1	0

2015-12-18 14:49:29,662 ERROR send(24) Socket error: /dev/ttyUSB2	1	1

2015-12-18 14:49:55,043 ERROR send(24) Socket error: /dev/ttyUSB2	1	0

2015-12-18 14:50:55,106 ERROR send(24) Socket error: /dev/ttyUSB2	1	1

2015-12-18 14:51:20,491 ERROR send(24) Socket error: /dev/ttyUSB2	1	0

2015-12-18 14:52:20,554 ERROR send(24) Socket error: /dev/ttyUSB2	1	1

2015-12-18 14:52:45,944 ERROR send(24) Socket error: /dev/ttyUSB2	1	0

2015-12-18 14:53:46,009 ERROR send(24) Socket error: /dev/ttyUSB2	1	1

2015-12-18 14:54:11,390 ERROR send(24) Socket error: /dev/ttyUSB2	1	0

2015-12-18 14:55:11,454 ERROR send(24) Socket error: /dev/ttyUSB2	1	1

2015-12-18 14:55:36,854 ERROR send(24) Socket error: /dev/ttyUSB2	1	0

2015-12-18 14:56:36,917 ERROR send(24) Socket error: /dev/ttyUSB2	1	1

2015-12-18 14:57:02,309 ERROR send(24) Socket error: /dev/ttyUSB2	1	0

2015-12-18 14:58:02,374 ERROR send(24) Socket error: /dev/ttyUSB2	1	1

2015-12-18 14:58:27,756 ERROR send(24) Socket error: /dev/ttyUSB2	1	0

2015-12-18 14:59:27,819 ERROR send(24) Socket error: /dev/ttyUSB2	1	1

2015-12-18 14:59:53,278 ERROR send(24) Socket error: /dev/ttyUSB2	1	0

2015-12-18 15:00:53,343 ERROR send(24) Socket error: /dev/ttyUSB2	1	1

2015-12-18 15:01:18,739 ERROR send(24) Socket error: /dev/ttyUSB2	1	0

2015-12-18 15:02:18,804 ERROR send(24) Socket error: /dev/ttyUSB2	1	1

2015-12-18 15:02:44,185 ERROR send(24) Socket error: /dev/ttyUSB2	1	0

2015-12-18 15:03:44,249 ERROR send(24) Socket error: /dev/ttyUSB2	1	1

2015-12-18 15:04:09,642 ERROR send(24) Socket error: /dev/ttyUSB2	1	0

2015-12-18 15:05:09,706 ERROR send(24) Socket error: /dev/ttyUSB2	1	1

2015-12-18 15:05:35,100 ERROR send(24) Socket error: /dev/ttyUSB2	1	0

2015-12-18 15:06:35,165 ERROR send(24) Socket error: /dev/ttyUSB2	1	1

2015-12-18 15:07:00,547 ERROR send(24) Socket error: /dev/ttyUSB2	1	0

2015-12-18 15:08:00,610 ERROR send(24) Socket error: /dev/ttyUSB2	1	1

2015-12-18 15:08:26,002 ERROR send(24) Socket error: /dev/ttyUSB2	1	0

2015-12-18 15:09:26,066 ERROR send(24) Socket error: /dev/ttyUSB2	1	1

2015-12-18 15:09:51,462 ERROR send(24) Socket error: /dev/ttyUSB2	1	0

2015-12-18 15:10:51,531 ERROR send(24) Socket error: /dev/ttyUSB2	1	1

2015-12-18 15:11:16,920 ERROR send(24) Socket error: /dev/ttyUSB2	1	0

2015-12-18 15:12:16,983 ERROR send(24) Socket error: /dev/ttyUSB2	1	1

2015-12-18 15:12:42,399 ERROR send(24) Socket error: /dev/ttyUSB2	1	0

2015-12-18 15:13:42,472 ERROR send(24) Socket error: /dev/ttyUSB2	1	1

2015-12-18 15:14:07,894 ERROR send(24) Socket error: /dev/ttyUSB2	1	0

2015-12-18 15:15:07,948 ERROR send(24) Socket error: /dev/ttyUSB2	1	1

2015-12-18 15:15:33,337 ERROR send(24) Socket error: /dev/ttyUSB2	1	0

2015-12-18 15:16:33,402 ERROR send(24) Socket error: /dev/ttyUSB2	1	1

2015-12-18 15:16:58,795 ERROR send(24) Socket error: /dev/ttyUSB2	1	0

2015-12-18 15:17:58,858 ERROR send(24) Socket error: /dev/ttyUSB2	1	1

2015-12-18 15:18:24,246 ERROR send(24) Socket error: /dev/ttyUSB2	1	0

2015-12-18 15:19:24,311 ERROR send(24) Socket error: /dev/ttyUSB2	1	1

2015-12-18 15:19:49,694 ERROR send(24) Socket error: /dev/ttyUSB2	1	0

2015-12-18 15:20:49,757 ERROR send(24) Socket error: /dev/ttyUSB2	1	1

2015-12-18 15:21:15,152 ERROR send(24) Socket error: /dev/ttyUSB2	1	0

2015-12-18 15:22:15,220 ERROR send(24) Socket error: /dev/ttyUSB2	1	1

2015-12-18 15:22:40,612 ERROR send(24) Socket error: /dev/ttyUSB2	1	0

2015-12-18 15:23:40,681 ERROR send(24) Socket error: /dev/ttyUSB2	1	1

2015-12-18 15:24:06,070 ERROR send(24) Socket error: /dev/ttyUSB2	1	0

2015-12-18 15:25:06,134 ERROR send(24) Socket error: /dev/ttyUSB2	1	1

2015-12-18 15:25:31,524 ERROR send(24) Socket error: /dev/ttyUSB2	1	0

2015-12-18 15:26:31,589 ERROR send(24) Socket error: /dev/ttyUSB2	1	1

2015-12-18 15:26:56,986 ERROR send(24) Socket error: /dev/ttyUSB2	1	0

2015-12-18 15:27:57,054 ERROR send(24) Socket error: /dev/ttyUSB2	1	1

2015-12-18 15:28:22,463 ERROR send(24) Socket error: /dev/ttyUSB2	1	0

