2015-12-18 13:46:49,509 ERROR send(24) Socket error: /dev/ttyUSB2	1	1

2015-12-18 13:47:14,905 ERROR send(24) Socket error: /dev/ttyUSB2	1	0

2015-12-18 13:48:14,968 ERROR send(24) Socket error: /dev/ttyUSB2	1	1

2015-12-18 13:48:40,369 ERROR send(24) Socket error: /dev/ttyUSB2	1	0

2015-12-18 13:49:40,439 ERROR send(24) Socket error: /dev/ttyUSB2	1	1

2015-12-18 13:50:05,827 ERROR send(24) Socket error: /dev/ttyUSB2	1	0

2015-12-18 13:51:05,890 ERROR send(24) Socket error: /dev/ttyUSB2	1	1

2015-12-18 13:51:31,281 ERROR send(24) Socket error: /dev/ttyUSB2	1	0

2015-12-18 13:52:31,345 ERROR send(24) Socket error: /dev/ttyUSB2	1	1

2015-12-18 13:52:56,739 ERROR send(24) Socket error: /dev/ttyUSB2	1	0

2015-12-18 13:53:56,802 ERROR send(24) Socket error: /dev/ttyUSB2	1	1

2015-12-18 13:54:22,189 ERROR send(24) Socket error: /dev/ttyUSB2	1	0

2015-12-18 13:55:22,253 ERROR send(24) Socket error: /dev/ttyUSB2	1	1

2015-12-18 13:55:47,650 ERROR send(24) Socket error: /dev/ttyUSB2	1	0

2015-12-18 13:56:47,714 ERROR send(24) Socket error: /dev/ttyUSB2	1	1

2015-12-18 13:57:13,111 ERROR send(24) Socket error: /dev/ttyUSB2	1	0

2015-12-18 13:58:13,176 ERROR send(24) Socket error: /dev/ttyUSB2	1	1

2015-12-18 13:58:38,558 ERROR send(24) Socket error: /dev/ttyUSB2	1	0

2015-12-18 13:59:38,622 ERROR send(24) Socket error: /dev/ttyUSB2	1	1

2015-12-18 14:00:04,011 ERROR send(24) Socket error: /dev/ttyUSB2	1	0

2015-12-18 14:01:04,075 ERROR send(24) Socket error: /dev/ttyUSB2	1	1

2015-12-18 14:01:29,472 ERROR send(24) Socket error: /dev/ttyUSB2	1	0

2015-12-18 14:02:29,537 ERROR send(24) Socket error: /dev/ttyUSB2	1	1

2015-12-18 14:02:54,966 ERROR send(24) Socket error: /dev/ttyUSB2	1	0

2015-12-18 14:03:55,032 ERROR send(24) Socket error: /dev/ttyUSB2	1	1

2015-12-18 14:04:20,423 ERROR send(24) Socket error: /dev/ttyUSB2	1	0

2015-12-18 14:05:20,487 ERROR send(24) Socket error: /dev/ttyUSB2	1	1

2015-12-18 14:05:45,883 ERROR send(24) Socket error: /dev/ttyUSB2	1	0

2015-12-18 14:06:45,948 ERROR send(24) Socket error: /dev/ttyUSB2	1	1

2015-12-18 14:07:11,332 ERROR send(24) Socket error: /dev/ttyUSB2	1	0

2015-12-18 14:08:11,396 ERROR send(24) Socket error: /dev/ttyUSB2	1	1

2015-12-18 14:08:36,793 ERROR send(24) Socket error: /dev/ttyUSB2	1	0

2015-12-18 14:09:36,856 ERROR send(24) Socket error: /dev/ttyUSB2	1	1

2015-12-18 14:10:02,244 ERROR send(24) Socket error: /dev/ttyUSB2	1	0

2015-12-18 14:11:02,309 ERROR send(24) Socket error: /dev/ttyUSB2	1	1

2015-12-18 14:11:27,711 ERROR send(24) Socket error: /dev/ttyUSB2	1	0

2015-12-18 14:12:27,774 ERROR send(24) Socket error: /dev/ttyUSB2	1	1

2015-12-18 14:12:53,172 ERROR send(24) Socket error: /dev/ttyUSB2	1	0

2015-12-18 14:13:53,241 ERROR send(24) Socket error: /dev/ttyUSB2	1	1

2015-12-18 14:14:18,632 ERROR send(24) Socket error: /dev/ttyUSB2	1	0

2015-12-18 14:15:18,701 ERROR send(24) Socket error: /dev/ttyUSB2	1	1

2015-12-18 14:15:44,082 ERROR send(24) Socket error: /dev/ttyUSB2	1	0

2015-12-18 14:16:44,146 ERROR send(24) Socket error: /dev/ttyUSB2	1	1

2015-12-18 14:17:09,542 ERROR send(24) Socket error: /dev/ttyUSB2	1	0

2015-12-18 14:18:09,610 ERROR send(24) Socket error: /dev/ttyUSB2	1	1

2015-12-18 14:18:35,024 ERROR send(24) Socket error: /dev/ttyUSB2	1	0

2015-12-18 14:19:35,089 ERROR send(24) Socket error: /dev/ttyUSB2	1	1

2015-12-18 14:20:00,491 ERROR send(24) Socket error: /dev/ttyUSB2	1	0

2015-12-18 14:21:00,556 ERROR send(24) Socket error: /dev/ttyUSB2	1	1

2015-12-18 14:21:25,952 ERROR send(24) Socket error: /dev/ttyUSB2	1	0

2015-12-18 14:22:26,017 ERROR send(24) Socket error: /dev/ttyUSB2	1	1

2015-12-18 14:22:51,408 ERROR send(24) Socket error: /dev/ttyUSB2	1	0

2015-12-18 14:23:51,477 ERROR send(24) Socket error: /dev/ttyUSB2	1	1

2015-12-18 14:24:16,858 ERROR send(24) Socket error: /dev/ttyUSB2	1	0

2015-12-18 14:25:16,923 ERROR send(24) Socket error: /dev/ttyUSB2	1	1

2015-12-18 14:25:42,315 ERROR send(24) Socket error: /dev/ttyUSB2	1	0

2015-12-18 14:26:42,380 ERROR send(24) Socket error: /dev/ttyUSB2	1	1

2015-12-18 14:27:07,778 ERROR send(24) Socket error: /dev/ttyUSB2	1	0

2015-12-18 14:28:07,843 ERROR send(24) Socket error: /dev/ttyUSB2	1	1

2015-12-18 14:28:33,229 ERROR send(24) Socket error: /dev/ttyUSB2	1	0

2015-12-18 14:29:33,292 ERROR send(24) Socket error: /dev/ttyUSB2	1	1

2015-12-18 14:29:58,682 ERROR send(24) Socket error: /dev/ttyUSB2	1	0

2015-12-18 14:30:58,745 ERROR send(24) Socket error: /dev/ttyUSB2	1	1

2015-12-18 14:31:24,144 ERROR send(24) Socket error: /dev/ttyUSB2	1	0

2015-12-18 14:32:24,209 ERROR send(24) Socket error: /dev/ttyUSB2	1	1

2015-12-18 14:32:49,595 ERROR send(24) Socket error: /dev/ttyUSB2	1	0

2015-12-18 14:33:49,659 ERROR send(24) Socket error: /dev/ttyUSB2	1	1

2015-12-18 14:34:15,052 ERROR send(24) Socket error: /dev/ttyUSB2	1	0

2015-12-18 14:35:15,116 ERROR send(24) Socket error: /dev/ttyUSB2	1	1

2015-12-18 14:35:40,523 ERROR send(24) Socket error: /dev/ttyUSB2	1	0

2015-12-18 14:36:40,546 ERROR send(24) Socket error: /dev/ttyUSB2	1	1

2015-12-18 14:37:05,927 ERROR send(24) Socket error: /dev/ttyUSB2	1	0

